#,Seq,mod,pH,cp,cs,chains,Blocks,B_size,E_bond,E_bondErr,E_bondNef,E_bondTau,E_coul,E_coulErr,E_coulNef,E_coulTau,E_kin,E_kinErr,E_kinNef,E_kinTau,E_nonbond,E_nonbondErr,E_nonbondNef,E_nonbondTau,E_tot,E_totErr,E_totNef,E_totTau,T_kin,T_kinErr,T_kinNef,T_kinTau,q_H2,q_H2Err,q_H2Nef,q_H2Tau,q_H4,q_H4Err,q_H4Nef,q_H4Tau,q_c6,q_c6Err,q_c6Nef,q_c6Tau,q_n0,q_n0Err,q_n0Nef,q_n0Tau,q_net,q_netErr,q_netNef,q_netTau
10,nGHAHGc,2beadAA,1,0.0077,0.15,1,16,5625,23.0731837447701,0.075667238078277,25406.1055172205,0,-14.96212721303,0.061290654515656,26580.099516195,0,76.4539106779364,0.132943707633315,69213.3802295271,0,3.79216137207898,0.055410295121121,22007.8127960894,0,88.3571285817555,0.165432098353162,51712.1262375367,0,0.999397525201783,0.001737826243573,69213.3802295208,0,1,0,,,1,0,,,0,0,,,1,0,,,3,0,,
23,nGHAHGc,2beadAA,1.25,0.0077,0.15,1,16,5625,23.0787735499503,0.090560669487691,17654.0694642879,25.489873670736,-14.9714242584085,0.06427625720308,23912.4130600983,18.8186779514106,76.4404860454747,0.235312761782328,22328.8093793702,20.1533361127107,3.78301705464327,0.056056530629876,21411.1644918486,21.0170726860939,88.3308523916598,0.235498053154166,25736.2366580553,17.4850739211806,0.999220727057636,0.003075315196506,22339.0289802389,20.1441164169295,1,0,,,0.999922222222222,0.000311111111111,12856.2857047608,35.0023335474301,0,0,,,1,0,,,2.99992222222222,0.000311111111111,12856.2857047585,35.0023335474363
20,nGHAHGc,2beadAA,1.5,0.0077,0.15,1,16,5625,23.0824486729022,0.057861694563598,43153.377955568,0,-14.9550316090358,0.048703119707947,41381.2404939441,0,76.5549579487483,0.134766792497704,66786.2178439195,0,3.75852870531781,0.039951604421098,41564.6411165556,0,88.4409037179326,0.180296329782228,43121.3527430076,0,1.0007184045588,0.001761657418271,66786.2178439203,0,1,0,,,1,0,,,0,0,,,1,0,,,3,0,,
32,nGHAHGc,2beadAA,1.75,0.0077,0.15,1,16,5625,23.0887224303946,0.096869428030277,15404.0929395493,29.2130151502618,-14.996066667569,0.076277751242269,16833.2849278697,26.7327501641739,76.569505031759,0.173874151020317,39874.9435240277,11.2852824518218,3.77980187240716,0.076323945220505,11649.5446118508,38.6281194169015,88.4419626669918,0.183780905408151,41242.5737781943,10.911055232373,1.00090717527136,0.002274220900054,39826.7732483353,11.298931942419,0.999933333333333,0.000266666666667,14999.1666574075,30.001666805726,1,0,,,0,0,,,1,0,,,2.99993333333333,0.000266666666667,14999.1666574106,30.0016668057198
21,nGHAHGc,2beadAA,2,0.0077,0.15,1,16,5625,23.0775229067341,0.057463796629183,43365.3286706407,0,-14.9728360553766,0.068760336785497,20602.3686526384,0,76.4702835575122,0.15206653531487,52904.275960907,0,3.77746578738494,0.035785468481044,52690.9033055766,0,88.3524361962546,0.165947600917716,51527.3749498997,0,0.999610326734495,0.001988406691324,52872.3506753086,0,0.999933333333333,0.000223698798082,21314.6052499972,0,1,0,,,0,0,,,1,0,,,2.99993333333333,0.000223698798082,21314.6052499986,0
6,nGHAHGc,2beadAA,2.25,0.0077,0.15,1,16,5625,23.0698332284218,0.068463365848144,30753.9424224867,14.6322703684547,-15.00099190861,0.043126647954885,52925.2356535413,8.50256016557963,76.5456257942071,0.184912075019832,35475.1460316913,12.6849372239289,3.79223228382957,0.051891445566814,24693.8275392242,18.2231774198198,88.4066993978484,0.223735808835117,28028.747038272,16.0549452962439,1.00059378454183,0.002418556596336,35434.671159141,12.6994264572321,0.9999,0.000194407403879,42330.7316654975,10.630574590056,0.999955555555556,0.000121445342411,48212.6785535719,9.33364446701906,0,0,,,1,0,,,2.99985555555556,0.000207513200532,53662.5687278249,8.38573350269724
13,nGHAHGc,2beadAA,2.5,0.0077,0.15,1,16,5625,23.089292509526,0.074302553126942,26122.6861141165,0,-14.9943045332319,0.066141292920515,22125.2530346272,0,76.5907124247613,0.215484145443523,26271.7546501582,0,3.7809686066491,0.059519401699672,19140.1092827023,0,88.4666690077045,0.206462449597793,32989.714514528,0,1.00118068625792,0.002814401841845,26316.4687020018,0,0.9999,0.000214993539955,34612.3076581165,0,0.999833333333333,0.000427991769468,14555.6074514736,0,0,0,,,1,0,,,2.99973333333333,0.000468110640785,19466.1778293233,0
18,nGHAHGc,2beadAA,2.75,0.0077,0.15,1,16,5625,23.097477264774,0.074560553718729,26209.8616390724,0,-14.974371298648,0.07432986612362,17620.3135858705,0,76.5563469423212,0.202454068182224,29482.5494442761,0,3.76193726617307,0.038766585911581,44729.5199124661,0,88.4413901746203,0.202814175643547,34164.6464325479,0,1.00072618707347,0.002646874501886,29471.5669234176,0,0.999655555555556,0.000447250401689,27541.8366326509,0,0.999822222222222,0.000234055320393,51914.4229807663,0,0,0,,,1,0,,,2.99947777777778,0.000521220473402,30740.4603197512,0
8,nGHAHGc,2beadAA,3,0.0077,0.15,1,16,5625,23.0738729317434,0.085295403479694,19748.9338065465,0,-14.9622132785561,0.060814519890068,26458.1588510115,0,76.4402204122518,0.180832517349696,37183.5650845571,0,3.77378924785365,0.049285687297046,26957.5484230497,0,88.3256693132928,0.203568366279583,34031.0073079458,0,0.999201006952804,0.002362888641179,37211.0791607288,0,0.999322222222222,0.000760420070177,18741.7671122729,0,0.999777777777778,0.000340418527202,30675.3408371204,0,0,0,,,1,0,,,2.9991,0.00086478428053,19238.0346751186,0
19,nGHAHGc,2beadAA,3.25,0.0077,0.15,1,16,5625,23.0796082979853,0.073102290675434,26871.7975533674,16.746181550579,-15.0091701511821,0.064250742599651,24165.8117264348,18.621348436926,76.5566711613921,0.173944486327199,39752.292419629,11.3201018866749,3.78500700919663,0.05193292562413,24832.10146348,18.1217043221614,88.4121163173919,0.209315548398848,31718.3353625769,14.1873775932778,1.00071386613224,0.002262242947713,40157.2640465539,11.2059427130647,0.999088888888889,0.000992747362174,14778.2427703084,30.4501697132227,0.999522222222222,0.000692249865687,15944.7402305575,28.2224729855861,0,0,,,1,0,,,2.99861111111111,0.001152531656011,16706.4040266328,26.9357786212832
5,nGHAHGc,2beadAA,3.5,0.0077,0.15,1,16,5625,23.0882465771607,0.078016081644452,23825.0344813528,0,-14.9793874627595,0.06400554509999,23723.955328504,0,76.5365497535788,0.194271373484801,31735.4226129817,0,3.77409341656365,0.063270457476422,17031.4549557462,0,88.4195022845437,0.204180846285684,33535.8120774167,0,1.00041843773305,0.002534183280907,31860.0292037391,0,0.998122222222222,0.001687757905913,10527.6739525657,0,0.998866666666667,0.000810466512003,27575.2743149527,0,0,0,,,1,0,,,2.99698888888889,0.001557247756823,19807.3547545412,0
26,nGHAHGc,2beadAA,3.75,0.0077,0.15,1,16,5625,23.0758766688533,0.089177166416907,18243.7612369825,24.6659663308291,-14.9590165269179,0.067682740898172,21424.4582431457,21.0040317151572,76.4582811229093,0.202240140223695,29607.0187305129,15.1990987176067,3.79196654279923,0.048137482381685,29343.115175822,15.3357950484373,88.367107807644,0.193284318329932,37376.0606685232,12.0397921121224,0.999338353540812,0.002639012052975,29699.4553939528,15.151793002599,0.996844444444444,0.001573442138945,20329.4897130064,22.1353318146099,0.997222222222222,0.001283411092722,26908.0780000703,16.723602496541,0,0,,,1,0,,,2.99406666666667,0.001883521786704,27001.8835398578,16.6655040843667
14,nGHAHGc,2beadAA,4,0.0077,0.15,1,16,5625,23.0853264808658,0.048443458113255,60461.4451206817,0,-14.9885491990449,0.052281269879167,35290.599188801,0,76.485184550173,0.148430768251422,55275.6863367187,0,3.76223471431859,0.052686036578267,23939.8687593949,0,88.3441965463124,0.154391460027858,59111.5832281266,0,0.999633719793707,0.001928065162174,55943.1725306609,0,0.994722222222222,0.001362785817796,45229.5761522079,0,0.996477777777778,0.001674283828223,20033.231705007,0,0,0,,,1,0,,,2.9912,0.002018645595728,34249.0568635852,0
0,nGHAHGc,2beadAA,4.25,0.0077,0.15,1,16,5625,23.0886901058309,0.078005831536649,23928.4702700661,0,-14.9823230697258,0.045735111353196,46794.5749656911,0,76.4936778936903,0.19590261330847,31628.1253787431,0,3.79476602044796,0.049845189416505,27351.1488696243,0,88.3948109502433,0.203733200769736,33938.5680923582,0,0.999591213201053,0.002538939053655,32133.970126136,0,0.989755555555556,0.002794279871452,20777.8861983308,0,0.993644444444444,0.002079822721157,23359.1319277907,0,0,0,,,1,0,,,2.9834,0.002624757092426,38325.5932839196,0
24,nGHAHGc,2beadAA,4.5,0.0077,0.15,1,16,5625,23.1133003155393,0.070250873789902,29171.676504933,15.4259217958556,-14.9792905609275,0.062358069189829,25330.3700268065,17.7652359575826,76.4944497986246,0.155042369408279,50736.3804895504,8.8693753097302,3.75979947164148,0.047983941194618,28962.8250991596,15.5371583703743,88.3882590248779,0.133931991948676,78429.6638222577,5.7376250067693,0.999307904861808,0.002062016098909,48906.6145016791,9.2012093865881,0.982444444444444,0.002506183299863,43936.1221945664,10.2421419538647,0.985944444444444,0.003034723599457,24076.1469007467,18.6906984026227,0,0,,,1,0,,,2.96838888888889,0.004496626993757,24452.3120002824,18.4031677828215
15,nGHAHGc,2beadAA,4.75,0.0077,0.15,1,16,5625,23.0862623997433,0.050902451797203,55692.8991867785,0,-14.9619861446161,0.033290785768502,88716.4259302218,0,76.5397762659711,0.163226204252934,45387.0761939719,0,3.77932801169803,0.045642208017953,32219.465157561,0,88.4433805327963,0.188761711380912,38983.9192589321,0,0.999454050075824,0.002095120153164,46869.1912581749,0,0.971033333333333,0.006005089747927,12480.1114438791,0,0.974811111111111,0.004092092143024,23461.9162923596,0,0,0,,,1,0,,,2.94584444444444,0.007160090580387,16402.5214264173,0
27,nGHAHGc,2beadAA,5,0.0077,0.15,1,16,5625,23.065215878676,0.06237132551812,36574.6028764076,0,-14.9906745721066,0.064672605032104,23425.3547269285,0,76.6342625194141,0.187933495965076,34801.3080075944,0,3.77812628622796,0.041244836178307,38861.5712337054,0,88.4869301122114,0.218203935560131,29830.3024965863,0,0.999980815690044,0.00245822049753,34550.0610581143,0,0.950266666666667,0.006463389776844,18100.7753367029,0,0.959233333333333,0.004816747190578,26967.8651004528,0,0,0,,,1,0,,,2.9095,0.007740847775266,22957.6322393641,0
12,nGHAHGc,2beadAA,5.25,0.0077,0.15,1,16,5625,23.0696976178414,0.055823198784018,46098.7647335643,9.76164986241926,-15.0371656171022,0.050775811708043,38172.4561177508,11.7886048262385,76.7480043129722,0.173928606441602,40159.275758636,11.2053813700145,3.76260562399504,0.028984452684981,79361.5241010642,5.67025401183117,88.5431419377065,0.182983604043311,41772.4412644697,10.7726526580061,1.00016738249044,0.002282649358318,39435.2163110403,11.4111203770198,0.915144444444444,0.005038243864142,48948.1596217904,9.19339979063825,0.928022222222222,0.006599962588745,24535.7123070358,18.3406128498684,0,0,,,1,0,,,2.84316666666667,0.008237135624243,33704.0569068075,13.3515084449138
30,nGHAHGc,2beadAA,5.5,0.0077,0.15,1,16,5625,23.0680986543023,0.067110567674854,31844.0366854784,0,-15.0794587516775,0.066984925516846,21703.4475544123,0,76.8386071213537,0.17320675716794,40914.1896956522,0,3.77806771911117,0.04464346592568,33772.3490119385,0,88.6053147430896,0.224712564094248,27870.1114276853,0,0.999282942157291,0.002130683210172,45375.2656966349,0,0.859233333333333,0.007952641717572,30599.4004768653,0,0.878711111111111,0.008067925623623,26198.0020590344,0,0,0,,,1,0,,,2.73794444444444,0.011424435583216,27245.5342543426,0
3,nGHAHGc,2beadAA,5.75,0.0077,0.15,1,16,5625,23.0657746195247,0.05696534569036,43989.2243567547,10.2297780195484,-15.1231667372832,0.054552897378794,32028.6462970093,14.0499225677151,77.0762242527216,0.14836934440332,56292.1897541271,7.99400418401244,3.76433628299709,0.05620171429234,21150.4464688999,21.2761466328101,88.7831684179601,0.167462033837691,50998.6226138492,8.82376772857219,0.999339712344269,0.001938205608613,54982.1788212223,8.18447013322108,0.774755555555555,0.01081204632246,23885.1404850751,18.8401655289782,0.807044444444444,0.011995433973558,17316.0016485733,25.9875235377326,0,0,,,1,0,,,2.5818,0.017515923384637,16510.7354866793,27.2549942299523
1,nGHAHGc,2beadAA,6,0.0077,0.15,1,16,5625,23.0700491869054,0.082289329443301,21172.7131582699,0,-15.1472869096565,0.051599154587105,36070.8721155837,0,77.4094423411654,0.194370328893116,32846.0207847682,0,3.78580885598554,0.043909544695698,35293.3226074505,0,89.1180134743998,0.201379592946134,35137.9021766486,0,0.999689619448378,0.002544790888893,31599.2290961957,0,0.665411111111111,0.01180699102384,25553.3536347402,0,0.712066666666667,0.011797780358999,23568.7633643306,0,0,0,,,1,0,,,2.37747777777778,0.017042788079255,22544.337879383,0
17,nGHAHGc,2beadAA,6.25,0.0077,0.15,1,16,5625,23.037530461433,0.06366816852016,34941.3979767282,12.8787062476448,-15.2658972565382,0.043376755119077,50699.6357196478,8.87580342613672,77.7758185139039,0.109128464698504,105824.068810921,4.25234075272954,3.78442668017077,0.041822011050198,38486.1894168911,11.6925059935093,89.3318783989695,0.127361153410314,88787.1401303505,5.06830155542434,0.999415328459536,0.001569902504331,83295.043160128,5.40248234891055,0.530277777777778,0.012573840504022,25207.7131619655,17.8516788703909,0.588988888888889,0.012222782478742,25926.5844479722,17.3567020109172,0,0,,,1,0,,,2.11926666666667,0.018914851003309,20918.751622808,21.5117999648551
7,nGHAHGc,2beadAA,6.5,0.0077,0.15,1,16,5625,23.0243524982766,0.061646055349132,37803.5191928401,0,-15.2927283817154,0.06393369509505,22543.7207748699,0,78.2180691050452,0.245088859821383,21263.6956982225,0,3.81483996471437,0.044603628470512,34308.0617354381,0,89.7645331863207,0.226427506820818,28286.1178526271,0,1.00009886378474,0.003246224815545,19583.9894623238,0,0.403133333333333,0.012095314196597,26315.7974115212,0,0.456266666666667,0.012892178379719,23882.3410654453,0,0,0,,,1,0,,,1.8594,0.018974575148277,20504.3603099164,0
11,nGHAHGc,2beadAA,6.75,0.0077,0.15,1,16,5625,23.0212274548146,0.062087651899676,36810.1878386469,0,-15.3465322615872,0.058429935504423,26765.156838378,0,78.6152212805116,0.155934418399506,51661.9317275642,0,3.80287061597266,0.036950289441464,49664.5685006655,0,90.0927870897117,0.164266481389653,53106.0568458111,0,1.00027988750683,0.001955065308015,52602.7203234367,0,0.280233333333333,0.012443380906935,20842.9669412477,0,0.324333333333333,0.010918484345894,29411.9741868084,0,0,0,,,1,0,,,1.60456666666667,0.015878215529305,25280.832402197,0
22,nGHAHGc,2beadAA,7,0.0077,0.15,1,16,5625,23.0033837452392,0.063326305345285,35529.5759185074,12.6655044082496,-15.4445617320894,0.059834232310762,25684.8401290033,17.5200623464639,78.9047243406933,0.216968981237776,26613.3360969775,16.9088158951332,3.8128633802536,0.031640849036485,67476.4323213006,6.66899515784034,90.2764097340967,0.278284062262631,18490.6019874936,24.3366874006298,0.99997346583505,0.002756800372128,26241.8525343548,17.1481796046972,0.179488888888889,0.009581078747137,25669.5363546666,17.5305075324154,0.216022222222222,0.009677138644542,28935.6380727906,15.5517566015677,0,0,,,1,0,,,1.39551111111111,0.013473397657772,27142.4459819114,16.5791985261384
25,nGHAHGc,2beadAA,7.25,0.0077,0.15,1,16,5625,23.0177046550832,0.064857340750531,34064.3480200116,13.2102924779924,-15.4720110075837,0.047317926008134,40541.7848182146,11.0996593375016,79.0965698523348,0.208572569784568,28723.2785183666,15.6667352624364,3.81270048163394,0.038936003529248,44424.8661045958,10.1294621655578,90.4549639814682,0.216499276684907,30432.1856016779,14.7869760754766,0.999576783302501,0.002562337881063,30211.6058108542,14.8949381649486,0.111377777777778,0.008140850604186,23894.665572586,18.832655307499,0.135288888888889,0.011028146556013,15390.5067528327,29.2388033508806,0,0,,,1,0,,,1.24666666666667,0.01319297980175,19324.9169293179,23.2859992134704
2,nGHAHGc,2beadAA,7.5,0.0077,0.15,1,16,5625,23.0310472021126,0.048900136222743,59669.3190437907,7.54156420134181,-15.4457175939076,0.058177885218578,26850.2969468034,16.7595911997043,79.2247384560546,0.161594295440423,48586.9107522314,9.26175369975396,3.79842843741058,0.059721801088867,18917.2891686945,23.7877634795467,90.6084965016703,0.127977647648198,88898.9584625966,5.06192657598377,0.999301080508905,0.002017182132459,49422.3288946985,9.10519618324515,0.065088888888889,0.007253355119793,18506.4920843023,24.3157913649555,0.081522222222222,0.006877026824318,25331.915711905,17.7641519708521,0,0,,,1,0,,,1.14661111111111,0.010050493098482,21310.650173472,21.1162023099261
28,nGHAHGc,2beadAA,7.75,0.0077,0.15,1,16,5625,22.9976780286765,0.052724457566924,50510.7709088358,8.90899094044507,-15.4998161721051,0.063649766674209,21978.8892280481,20.4741921101023,79.4129843311504,0.193392960912494,33680.0927001128,13.3610083686084,3.8082051571677,0.056599942447947,21330.0986173161,21.0969488934476,90.7190513448895,0.231030037082087,27073.9263185565,16.6211577562462,1.00047294881571,0.002468868776671,32712.2613666427,13.7563097634268,0.036944444444445,0.004229576441256,31822.2975695417,14.1410279832348,0.046244444444445,0.005033706960215,27851.308045345,16.1572303781591,0,0,,,1,0,,,1.08318888888889,0.007278755376807,23925.8633538566,18.8080987409459
16,nGHAHGc,2beadAA,8,0.0077,0.15,1,16,5625,22.9863785309669,0.061303330297764,38100.8437059973,0,-15.4696590607913,0.078284563190568,14587.1283883935,0,79.4676258640004,0.161775891171263,48506.7604914803,0,3.82086433048552,0.041014983885954,40411.2889481354,0,90.8052096646616,0.186360184745239,41760.5306269992,0,1.00050977030699,0.001999555216308,50270.2853916778,0,0.022611111111111,0.003126206762881,36180.8456528644,0,0.0259,0.004318557905925,21644.6526678925,0,0,0,,,1,0,,,1.04851111111111,0.004571286299961,36005.7355732947,0
31,nGHAHGc,2beadAA,8.25,0.0077,0.15,1,16,5625,23.0031481479912,0.06654921376897,31854.0794868459,14.1269189902324,-15.5272886134792,0.07000333761706,18278.9138137407,24.618530674444,79.4704160906455,0.178779650417374,39527.7079658512,11.3844192738891,3.80334780115597,0.048665268717891,28567.2978494447,15.7522774044183,90.7496234263134,0.182295230484736,43530.4446022328,10.3375925638033,1.00013908305971,0.002256733943622,39264.370713403,11.4607719987089,0.012522222222222,0.002981136856089,22262.2839731699,20.2135594425723,0.014533333333333,0.00335524649055,20355.5630623109,22.106978767504,0,0,,,1,0,,,1.02705555555556,0.005392352457006,14643.7728522875,30.7297856200221
29,nGHAHGc,2beadAA,8.5,0.0077,0.15,1,16,5625,23.0224108635672,0.053602952349424,49154.2864370963,0,-15.4830590611349,0.046047280134207,42309.3578867902,0,79.3979509890835,0.142924229089191,61897.6772397034,0,3.79591148863778,0.036772908123771,49374.2713666092,0,90.7332142801536,0.154309475446222,60766.6183205184,0,0.999019968245454,0.001786083329458,62733.299411624,0,0.006666666666667,0.001910318526432,29034.6759562404,0,0.009366666666667,0.002472512259308,24285.4359196451,0,0,0,,,1,0,,,1.01603333333333,0.002989782325506,28597.0304983595,0
4,nGHAHGc,2beadAA,8.75,0.0077,0.15,1,16,5625,23.0018511731016,0.058441279898547,41717.1921465269,0,-15.4918419303466,0.050189640815067,35442.8593082446,0,79.4837509204361,0.172219868299214,42546.0119807178,0,3.80450176125323,0.04582830360244,31613.8557328642,0,90.7982619244444,0.150142153950338,64207.5986330322,0,0.99996735385191,0.002162747049374,42692.39293731,0,0.003555555555556,0.001847520861407,16607.5919362067,0,0.005522222222222,0.002183575050233,18428.8198114787,0,0,0,,,1,0,,,1.00907777777778,0.002793973526332,18437.3860707299,0
9,nGHAHGc,2beadAA,9,0.0077,0.15,1,16,5625,22.9928666409501,0.064826128783269,33379.3233658266,0,-15.4903556320679,0.043582315135658,47466.0222077447,0,79.4763452967787,0.158803184737704,50733.957493602,0,3.81222649021886,0.053037996837787,23750.7072897428,0,90.7910827958796,0.209808719540693,33234.8842297469,0,0.999801429324171,0.002003431798218,50433.7108359025,0,0.002255555555556,0.001361238845102,19432.5139055924,0,0.003022222222222,0.001066666666667,42372.0263558484,0,0,0,,,1,0,,,1.00527777777778,0.001498289834439,37418.4731902744,0
