#,Seq,mod,pH,cp,cs,chains,Blocks,B_size,E_bond,E_bondErr,E_bondNef,E_bondTau,E_coul,E_coulErr,E_coulNef,E_coulTau,E_kin,E_kinErr,E_kinNef,E_kinTau,E_nonbond,E_nonbondErr,E_nonbondNef,E_nonbondTau,E_tot,E_totErr,E_totNef,E_totTau,T_kin,T_kinErr,T_kinNef,T_kinTau,q_E2,q_E2Err,q_E2Nef,q_E2Tau,q_E4,q_E4Err,q_E4Nef,q_E4Tau,q_c6,q_c6Err,q_c6Nef,q_c6Tau,q_n0,q_n0Err,q_n0Nef,q_n0Tau,q_net,q_netErr,q_netNef,q_netTau
29,nGEAEGc,2beadAA,1,0.0077,0.15,1,16,5625,22.9919409278151,0.078804727962799,23028.4496521391,0,-13.6892104843782,0.044416351675281,39563.0436763301,0,73.5044536823446,0.139017318557289,60355.6362154483,0,3.79579989663221,0.042258958393104,37757.5959019637,0,86.6029840224137,0.154728094548603,56179.1584675731,0,0.99996561998822,0.001879694861702,61095.4180801222,0,-0.002955555555556,0.001939733976924,12531.2417139695,0,-0.001733333333333,0.00085011739688,38308.5451840297,0,0,0,,,1,0,,,0.995311111111111,0.001936472547166,19912.7349483544,0
9,nGEAEGc,2beadAA,1.25,0.0077,0.15,1,16,5625,22.9924761044325,0.069633911159207,29475.8282613427,15.2667465839888,-13.6962909279246,0.035350277653196,62784.8746838442,7.16733134668323,73.4478998482375,0.19353431534862,30940.5052238694,14.5440417718822,3.80248348089388,0.049819219689503,27199.7766585395,16.5442535087072,86.5465685056393,0.216029246842384,28557.2018364865,15.7578464093126,0.999133582100463,0.002636057922205,30856.4458288008,14.5836627755448,-0.004255555555556,0.002374043450429,12029.6125053248,37.4076887530589,-0.003488888888889,0.00138145268563,29148.892742167,15.4379792192971,0,0,,,1,0,,,0.992255555555555,0.003248987179949,11647.7655552976,38.6340193990621
25,nGEAEGc,2beadAA,1.5,0.0077,0.15,1,16,5625,22.9829969932767,0.058715375580069,41167.0564155999,0,-13.6792840613048,0.039258181548442,51536.6934433725,0,73.4977373396741,0.179842327582032,35785.9603879186,0,3.80179132488025,0.040966360016739,40208.5378110632,0,86.6032415965262,0.203375079693019,32029.9086322346,0,0.999694902894786,0.002460379252617,35359.1561335904,0,-0.007444444444444,0.001734434597927,39300.3184772444,0,-0.005988888888889,0.001963317927375,24710.4718550487,0,0,0,,,1,0,,,0.986566666666667,0.002734904697371,28492.451743628,0
32,nGEAEGc,2beadAA,1.75,0.0077,0.15,1,16,5625,22.9825298168829,0.082846771646327,20725.283910092,0,-13.7246025579805,0.03970510717195,50951.8213905528,0,73.4788279629204,0.175690460242265,37755.3916486387,0,3.81037121307446,0.045514972096237,33219.442070029,0,86.5471264348972,0.183484564216516,39614.0000408759,0,0.999187068266537,0.002381771240178,37946.1658906583,0,-0.015444444444445,0.003447162607298,20474.5226762204,0,-0.010188888888889,0.002776764259545,20927.913784617,0,0,0,,,1,0,,,0.974366666666667,0.005814255221953,11852.8231097777,0
5,nGEAEGc,2beadAA,2,0.0077,0.15,1,16,5625,22.9949403701227,0.060438045093313,39139.7837322056,0,-13.7237375518526,0.078237255703407,12997.9468402672,0,73.54942893608,0.113157526532382,91002.0746833382,0,3.79184794412103,0.033946439457738,57522.5756122075,0,86.6124796984711,0.171120603459084,45446.6330110951,0,0.999818320613827,0.001542998889193,90376.9872195394,0,-0.024033333333333,0.004154687966474,21741.8742177644,0,-0.018,0.00313111032253,28847.7576679715,0,0,0,,,1,0,,,0.957966666666667,0.005150431681137,24850.3978149043,0
4,nGEAEGc,2beadAA,2.25,0.0077,0.15,1,16,5625,22.9771797617061,0.085613287036518,19406.0282377938,0,-13.7760438298416,0.05139026073962,30546.6457476862,0,73.5433879220799,0.140474595795477,58208.9191695152,0,3.78997546380728,0.039441403176893,42902.8635328839,0,86.5344993177516,0.14304128046968,64376.8989347666,0,0.999019406533445,0.001831333329918,63037.9126508557,0,-0.041633333333333,0.00525902555558,23082.7277517082,0,-0.035333333333333,0.005337479869566,19143.1847455406,0,0,0,,,1,0,,,0.923033333333333,0.007670850173666,20024.7956920696,0
3,nGEAEGc,2beadAA,2.5,0.0077,0.15,1,16,5625,22.9969190652135,0.051228305542074,54335.9558428301,0,-13.8635864025866,0.047160167665311,36720.092400271,0,73.7004962459925,0.149515591565132,52525.1491002201,0,3.80812312919469,0.038868991122313,44743.7069464538,0,86.6419520378141,0.131853687087492,77223.1779496326,0,1.00006937883331,0.001998778191388,53898.2356226636,0,-0.073155555555556,0.004807237342195,46944.8378018691,0,-0.056966666666667,0.008341793236666,12352.4702928273,0,0,0,,,1,0,,,0.869877777777778,0.008248957534836,28083.9265130011,0
30,nGEAEGc,2beadAA,2.75,0.0077,0.15,1,16,5625,22.961833862024,0.061048566881802,38543.6334660388,11.6750799016646,-13.9238863969946,0.054797317355458,27969.8477255074,16.0887540337266,73.8789605571786,0.171462355235911,39763.5606859921,11.3168939766252,3.81467904894837,0.032459513516384,65708.5241635444,6.84842653437862,86.7315870711563,0.181466570465438,40366.1199219158,11.1479627293125,1.00075334643545,0.002377712847009,37710.463636456,11.9330275213441,-0.1208,0.011296375470275,13316.840059203,33.7918003382108,-0.094644444444445,0.010719449651127,11931.474787828,37.7153711857605,0,0,,,1,0,,,0.784555555555556,0.015041005132336,13262.0845629764,33.9313173792253
8,nGEAEGc,2beadAA,3,0.0077,0.15,1,16,5625,22.9884140798173,0.069612379997927,29527.420633087,15.2400714580144,-14.0947823957263,0.051733725311355,32226.8920590118,13.9634935815431,74.0314279163803,0.186905504499122,33560.8901908204,13.4084643720857,3.81438278828423,0.039451910062672,43501.6482561361,10.3444356353927,86.7394423887556,0.184394349927896,39168.796989011,11.4887368265445,0.999887118330911,0.002573150519152,32016.4867542068,14.0552585882949,-0.198444444444444,0.007856758774216,41229.7349965852,10.9144528931938,-0.161388888888889,0.007731519582962,36226.7464579679,12.4217613895084,0,0,,,1,0,,,0.640166666666667,0.011065619465551,37095.2496896999,12.1309333185064
19,nGEAEGc,2beadAA,3.25,0.0077,0.15,1,16,5625,22.9756393072076,0.094457719470804,15905.8299441398,0,-14.2875222916336,0.065182269617276,20856.5640622848,0,74.2645303793497,0.234039261012891,21467.0765835601,0,3.80094355664494,0.053536367197277,23378.4353188453,0,86.7535909515686,0.268300695492485,18516.5851482458,0,0.999464758519472,0.003199034110209,20570.3353210629,0,-0.292611111111111,0.01450452689375,15742.246922007,0,-0.243533333333333,0.008361447882968,42160.9164795208,0,0,0,,,1,0,,,0.463855555555556,0.016289880218432,22336.6279817757,0
24,nGEAEGc,2beadAA,3.5,0.0077,0.15,1,16,5625,22.9899549023452,0.0691019292852,29837.2183473983,15.0818348807544,-14.5617691949523,0.04304338427969,48846.3828078323,9.21255525075073,74.6460610400948,0.174107645020162,40278.7341580456,11.1721485250943,3.79395740979327,0.04701043745518,30234.7639506907,14.8835294745602,86.8682041572809,0.197018634287426,35493.5645560995,12.6783546832899,0.999743066315613,0.002285973510824,41318.9834182563,10.8908778287524,-0.416111111111111,0.01356960049571,21112.0403979979,21.3148512381186,-0.360255555555556,0.013395366805424,20550.9923410392,21.8967528647194,0,0,,,1,0,,,0.223633333333333,0.01727800857295,23749.2192274431,18.9479913468685
21,nGEAEGc,2beadAA,3.75,0.0077,0.15,1,16,5625,22.9483088707133,0.058625450443763,41076.2536289322,10.9552347320724,-14.8658570622719,0.058965832705398,26799.575162119,16.791310970301,75.0130613917511,0.24847124785993,19724.6425853364,22.8141016229938,3.83569878333756,0.049865237665705,27441.2506767786,16.3986694964999,86.9312119835302,0.289312733429145,16495.5993732202,27.2800030018702,0.999382099766361,0.003316095699832,19419.1552856189,23.1729956221293,-0.548511111111111,0.013076015803769,23174.2896517873,19.4180709389895,-0.491544444444445,0.014791491270043,18277.4950101382,24.6204417054683,0,0,,,1,0,,,-0.040055555555556,0.020709976125315,17290.6445477144,26.0256347978989
7,nGEAEGc,2beadAA,4,0.0077,0.15,1,16,5625,22.9410738382815,0.049106434212373,57549.0650388113,7.8194146180869,-15.1283508813297,0.055259644190997,30177.8727132802,14.9115878609855,75.4595511293601,0.187323917588144,34633.5587395604,12.9931782005324,3.84228482530119,0.034781377848277,56199.0626975177,8.007250989999,87.1145589116132,0.21590582859311,29466.0915459299,15.2717912967956,1.00006981221052,0.00256419200858,32094.3337566078,14.0211665970186,-0.680066666666667,0.010621112602821,30859.9885959237,14.5819885520358,-0.623166666666667,0.011380873421464,29008.6253198637,15.5126275533497,0,0,,,1,0,,,-0.303233333333333,0.014680572532314,31431.1821913842,14.316992522956
14,nGEAEGc,2beadAA,4.25,0.0077,0.15,1,16,5625,22.9543670050738,0.05736205876961,43069.4149140581,0,-15.3646063919539,0.052392561303442,33343.05713619,0,75.6717595411115,0.224473886272757,24278.6967671989,0,3.84365989111224,0.038968114296775,45181.0468495352,0,87.1051800453436,0.222865083538783,27992.7599106998,0,0.99850306225434,0.002900901385522,25077.4018724778,0,-0.786577777777778,0.012665798540751,16743.2964414184,0,-0.737144444444444,0.015489599856152,12921.5367742043,0,0,0,,,1,0,,,-0.523722222222222,0.015232345917157,24052.4182223112,0
0,nGEAEGc,2beadAA,4.5,0.0077,0.15,1,16,5625,22.9587568504105,0.062726022280874,35821.5795312254,0,-15.5556601361247,0.064616624097567,21779.9375520881,0,75.9594736365941,0.253012592607553,19120.0005900786,0,3.84383449702346,0.034943649998608,55023.1224082026,0,87.2064048479034,0.256341657720403,21164.2056442926,0,0.9988156510308,0.003263973742085,19724.3514576996,0,-0.867155555555556,0.008515165845873,25420.2018085558,0,-0.832544444444444,0.010853372159969,18936.6174325984,0,0,0,,,1,0,,,-0.6997,0.011246318098911,30994.5805171025,0
2,nGEAEGc,2beadAA,4.75,0.0077,0.15,1,16,5625,22.9551086523637,0.061484071512157,37780.7202560525,0,-15.6623013636223,0.07753102490528,14929.7900089996,0,76.1247410108038,0.182057492077783,36425.2852746146,0,3.85796751326847,0.05557134556282,22501.6551558445,0,87.2755158128136,0.196665313196878,35890.5819966629,0,0.998705235549374,0.002420606991906,35293.5315531006,0,-0.917455555555556,0.006736728150433,26699.2859690388,0,-0.898122222222222,0.011589051168922,10900.4380971738,0,0,0,,,1,0,,,-0.815577777777778,0.016597866886597,9504.94975939447,0
16,nGEAEGc,2beadAA,5,0.0077,0.15,1,16,5625,22.9450750479136,0.062292453958841,36328.7112471353,12.3868968915653,-15.7432406720794,0.046349857537941,41868.1964383643,10.7480149302389,76.3212627286017,0.195219697325771,31914.854024009,14.1000175054283,3.84500205733074,0.05358670987904,23878.8026294786,18.8451660413736,87.3680991617666,0.209133616759976,31640.0277948883,14.2224906798096,0.99983418590934,0.002509694978613,33036.0534093663,13.6214818049099,-0.948266666666667,0.005750774505004,23734.1169234195,18.9600481818508,-0.940955555555555,0.008564357184971,12119.4640897123,37.1303546997345,0,0,,,1,0,,,-0.889222222222222,0.011909231471371,11711.8778246835,38.4225319934019
10,nGEAEGc,2beadAA,5.25,0.0077,0.15,1,16,5625,22.9635246934187,0.073694307978832,26246.5970173019,0,-15.7876384536647,0.041125490501502,52578.8906864303,0,76.3214820153815,0.153944351210398,51497.1809641574,0,3.8608720374805,0.043899158843275,35576.858212797,0,87.358240292616,0.169579952129728,48771.5948491841,0,0.998926614925226,0.002047843506412,49779.7879175223,0,-0.970433333333333,0.003616496269525,35100.7855523805,0,-0.965333333333333,0.006591057665676,12325.4837341824,0,0,0,,,1,0,,,-0.935766666666667,0.007534288151006,17487.082725581,0
13,nGEAEGc,2beadAA,5.5,0.0077,0.15,1,16,5625,22.9394713566976,0.070555054890266,28622.3911801053,15.7219568968744,-15.8062036128282,0.038998827001132,59336.3283883838,7.58388684708694,76.3483580269954,0.171184614013296,41413.3165877866,10.8660700831627,3.85706375358302,0.038126547918762,47669.7440848807,9.43994999465124,87.3386895244478,0.198268369986997,35581.7763379516,12.6469234179049,0.998722893539525,0.002232542256037,41649.5248859915,10.8044449882896,-0.984811111111111,0.002272932515985,46326.6258513984,9.71363642719322,-0.979377777777778,0.003469780178282,26841.4882982619,16.7650912430305,0,0,,,1,0,,,-0.964188888888889,0.00383657940929,38499.5023864292,11.6884627729037
26,nGEAEGc,2beadAA,5.75,0.0077,0.15,1,16,5625,22.9796454001118,0.081402390000253,21468.7135396976,20.9607343070186,-15.8387965881986,0.076788771112364,15008.8368241897,29.9823367853418,76.430422109797,0.147911985570089,55444.7205468856,8.1161920554467,3.84572004171661,0.060937351861482,18504.1653444173,24.3188488669045,87.4169909634268,0.178155506216367,44054.3049328028,10.2146657654795,0.999484338561672,0.001938970755131,55150.8235047041,8.15944299328028,-0.991233333333333,0.002411249355996,23913.929840249,18.8174843459526,-0.9887,0.003748241837506,12723.6753098886,35.3671395614257,0,0,,,1,0,,,-0.979933333333333,0.004294170610789,17081.598228135,26.3441391378649
22,nGEAEGc,2beadAA,6,0.0077,0.15,1,16,5625,22.9745866619674,0.059706124573248,39643.4707120971,0,-15.8378837069832,0.050471800288403,34876.4450801878,0,76.4223978891997,0.229196618666423,23360.5671612729,0,3.85175649970386,0.034987808704603,56415.536604843,0,87.4108573438877,0.230471111138549,26516.2017389766,0,0.999203610643784,0.002973840784716,23713.5648641669,0,-0.9952,0.001603288801004,29733.969721704,0,-0.993666666666667,0.001625314151337,38117.397604407,0,0,0,,,1,0,,,-0.988866666666667,0.002411385886374,30354.9876082861,0
31,nGEAEGc,2beadAA,6.25,0.0077,0.15,1,16,5625,22.9602169651827,0.051080812368167,54230.2062326468,0,-15.8466787678043,0.061335641644913,23488.6545810536,0,76.4766378460577,0.140059760544799,62486.0609689144,0,3.85006724742078,0.0418500406235,39161.8348114129,0,87.4402432908569,0.146299032123495,66015.1715998763,0,0.999825612914273,0.001825898071314,62834.7493716235,0,-0.9972,0.001171176468764,32570.2006007964,0,-0.996155555555556,0.001508319862159,26933.863747672,0,0,0,,,1,0,,,-0.993355555555556,0.002395606403638,18401.6716498014,0
28,nGEAEGc,2beadAA,6.5,0.0077,0.15,1,16,5625,22.9684512317866,0.060213303962341,38415.6364795548,11.71398007843,-15.8340324237891,0.044520067897267,43742.400110665,10.2875013552811,76.4482853362115,0.182106546583739,36337.0455919556,12.3840558056084,3.83595089248292,0.056859683166959,20997.2967459349,21.4313302262985,87.418655036692,0.210857301438844,31299.8065823486,14.3770856614651,0.999397077105468,0.002375114493107,36499.5056133169,12.3289341282894,-0.998,0.001893145530592,8910.81329475098,50.5004409290892,-0.998244444444444,0.001739287021042,9269.0190608404,48.5488267386208,0,0,,,1,0,,,-0.996244444444444,0.00280406524407,7613.57591973369,59.104946895631
23,nGEAEGc,2beadAA,6.75,0.0077,0.15,1,16,5625,22.9495947888417,0.072319852998306,27094.2348537038,16.6086993358139,-15.8164850377123,0.049212905249407,36247.9681187573,12.4144889706586,76.5105277261406,0.219559696102624,25073.6276344887,17.947143787049,3.84942456416283,0.045670478887436,32679.0630510381,13.7702846533968,87.4930620414328,0.213124628794029,30567.4764514603,14.721529306931,1.00017883957402,0.002865075582978,25161.505858315,17.884462200039,-0.999111111111111,0.000940711577267,16057.3212718236,28.0245996702281,-0.998788888888889,0.000984956810066,19950.2399942961,22.5561196530845,0,0,,,1,0,,,-0.9979,0.001111585084093,27135.9921217027,16.583141622421
6,nGEAEGc,2beadAA,7,0.0077,0.15,1,16,5625,22.9419115383631,0.079127580976712,22446.4542220969,0,-15.8346633910968,0.056349971205535,27703.06380488,0,76.4850331428971,0.145946581647014,57051.6833429572,0,3.8290522452432,0.038188445865174,45619.4824265155,0,87.4213335354066,0.154172476653692,58820.8173686763,0,0.999826147028899,0.001908166599911,57030.5324868405,0,-0.999511111111111,0.000428145585024,42652.0256355314,0,-0.999377777777778,0.000690058743846,20894.3029553815,0,0,0,,,1,0,,,-0.998888888888889,0.000730116400889,33313.1171813201,0
1,nGEAEGc,2beadAA,7.25,0.0077,0.15,1,16,5625,22.9529563698417,0.051193777009713,54493.889403517,0,-15.8382974435362,0.062493424463471,23122.9466399789,0,76.4205515852466,0.143799546574717,58527.4401614654,0,3.86115055340289,0.035448792469657,54422.4054878777,0,87.3963610649551,0.157617213918974,56079.7863814245,0,0.998968901989387,0.001881302583855,58430.4895932257,0,-0.999877777777778,0.000273252020426,26187.5661052317,0,-0.999744444444444,0.000330805227839,37355.4872631308,0,0,0,,,1,0,,,-0.999622222222222,0.000383357487162,41113.9514453372,0
17,nGEAEGc,2beadAA,7.5,0.0077,0.15,1,16,5625,22.9594998651452,0.054322737193222,48604.6713255827,9.25836937369106,-15.8315036820018,0.059506531915493,25095.9364705847,17.9311898141975,76.5335433207587,0.204975312537276,29145.1483115718,15.4399626177379,3.84958620438812,0.034960016757948,56181.190273729,8.00979826569321,87.5111257082902,0.198109610519315,35678.4826310768,12.6126440149429,1.00044444033308,0.002681864338231,29091.3595896851,15.4685104706709,-0.999733333333333,0.000558422233571,13678.9357719583,32.897296099715,-0.999955555555556,0.000137706074532,37498.7499861023,12.0004000289576,0,0,,,1,0,,,-0.999688888888889,0.000552733573516,16288.2154629295,27.6273359376448
18,nGEAEGc,2beadAA,7.75,0.0077,0.15,1,16,5625,22.9874617775259,0.067788422401688,30642.1701764105,14.685643928886,-15.8684025298354,0.046356411416404,41319.7455077942,10.890676960588,76.4792477283114,0.215284901175176,26421.2529002382,17.0317434270893,3.84666053269575,0.055039278091967,22634.0891437272,19.8815157774444,87.4449675086976,0.219037413010162,29148.3667868758,15.4382577833386,0.999730436273778,0.002813541296782,26433.146327188,17.0240801018925,-0.999977777777778,8.88888888888884E-05,44999.499994445,10.0001111228935,-0.999933333333333,0.000127785829054,65318.9515725744,6.88927163687112,0,0,,,1,0,,,-0.999911111111111,0.00014515494772,67494.7499416626,6.66718523748945
12,nGEAEGc,2beadAA,8,0.0077,0.15,1,16,5625,22.9671618900972,0.06651735271444,32153.1265140454,0,-15.8345875861625,0.063851893715344,21708.2176283124,0,76.4607418537832,0.185523699503797,35638.9246733262,0,3.85234504552496,0.048526542900445,29199.8826945939,0,87.4456612032428,0.178997580602766,44092.6039738957,0,0.999487295595554,0.00242557397302,35626.5612169463,0,-1,0,,,-0.999977777777778,8.88888888888884E-05,44999.499994445,0,0,0,,,1,0,,,-0.999977777777778,8.88888888888884E-05,44999.499994445,0
20,nGEAEGc,2beadAA,8.25,0.0077,0.15,1,16,5625,22.9424250768192,0.047418549785495,62794.2296217876,7.16626357440937,-15.8571264226982,0.055330938942195,28910.8199057359,15.5651068315926,76.4366299175911,0.212086822012322,27126.6993891687,16.5888224721284,3.84767930695565,0.055764912721085,22046.5430816045,20.4113633033558,87.3696078786678,0.24635053205246,23080.8735541877,19.4966624363344,0.999173804336875,0.002770211384954,27169.142340405,16.5629078306418,-0.999888888888889,0.000330207566596,16302.7173731867,27.6027603325711,-1,0,,,0,0,,,1,0,,,-0.999888888888889,0.000330207566596,16302.7173731867,27.6027603325711
15,nGEAEGc,2beadAA,8.5,0.0077,0.15,1,16,5625,22.9631281873113,0.069740951941281,29429.923012168,15.2905598913874,-15.8538560704639,0.043458903735047,46530.5086592343,9.67107417011163,76.450513907279,0.18556636220953,35007.0742361858,12.8545446951783,3.8506231103516,0.040434247383868,41967.8639820146,10.7224899654012,87.4104091344779,0.211028293175688,31126.4358715696,14.4571643947035,0.999354245102612,0.00242527711322,35019.539915834,12.8499689458515,-1,0,,,-0.999944444444444,0.000222222222222,17999.199991109,25.0011111959843,0,0,,,1,0,,,-0.999944444444444,0.000222222222222,17999.199991109,25.0011111959843
27,nGEAEGc,2beadAA,8.75,0.0077,0.15,1,16,5625,22.9780137353531,0.095807353863068,15629.5214189492,0,-15.8326785403447,0.047476925980624,39263.2820092403,0,76.4703137158918,0.174481679405077,39999.6639296523,0,3.83511629810972,0.056383458825082,21582.6659383299,0,87.4507652090099,0.173602730275856,46488.8012507855,0,0.999611943998586,0.002280806266733,39999.6639296534,0,-1,0,,,-1,0,,,0,0,,,1,0,,,-1,0,,
11,nGEAEGc,2beadAA,9,0.0077,0.15,1,16,5625,22.9333499522178,0.077737775820588,23155.0202771628,19.4342304621317,-15.8238062916351,0.04562212179911,43096.5824673115,10.4416632284715,76.5332891621728,0.139064526844149,63554.2533990349,7.08056465703912,3.84410829966469,0.039340270042593,43738.897576213,10.2883251604047,87.4869411224203,0.166913593467442,50780.3268440819,8.86169956730317,1.0004351524467,0.001817836952211,63554.2533990326,7.08056465703938,-1,0,,,-1,0,,,0,0,,,1,0,,,-1,0,,
