,pH,av_z,err_z,av_C,err_C,av_U,err_U,av_D,err_D
0,0.1,-0.000592221264999991,3.505249043962953e-06,0.0005918703740000032,3.5013015712912236e-06,0.0021206571300000005,2.5159813652899404e-05,0.008913973895000003,0.00020133359741859974
1,0.2,-0.0007192745609999962,1.9337059144674485e-06,0.000718756739000011,1.930992309825252e-06,0.0025993280750000033,2.9492249654021433e-05,0.010998713209999978,0.0002467682730937525
2,0.3,-0.0008357407280000342,8.56454013048078e-07,0.0008350423789999966,8.55029041257381e-07,0.0030418064050000003,3.358283446665261e-05,0.012883573799999987,0.0002863354366202295
3,0.4,-0.0010480304249999705,4.468924338703206e-06,0.001046926399999985,4.45925589172822e-06,0.0038742660799999996,4.853781824286444e-05,0.016571372449999996,0.00038879163640851664
4,0.5,-0.0012631460100000385,2.179199598952809e-06,0.0012615535400000613,2.173509782767616e-06,0.004742157260000002,4.792795612750839e-05,0.02037518919999999,0.0004473582422360663
5,0.6,-0.0015088533799999925,5.5860424280317745e-06,0.001506575239999947,5.568643356574639e-06,0.005599432169999996,5.969018361643333e-05,0.023876881900000018,0.0005213472259959657
6,0.7,-0.0019628382949999443,6.2577258907726236e-06,0.00195898790000007,6.231997460888496e-06,0.007136341735000003,7.43862797462346e-05,0.029970213299999996,0.0006362788716296771
7,0.8,-0.0025219751299999354,8.127218044520182e-06,0.0025156164099999455,8.084662522960725e-06,0.00938073439499999,9.01171938630849e-05,0.03972648149999993,0.0008353802285225245
8,0.9,-0.0031341274650001343,7.775053067856976e-06,0.0031244755150000424,8.091896938111512e-06,0.011884462649999988,0.00011041757095842786,0.05092959714999997,0.0010884935827048347
9,1.0,-0.0039971026200000224,3.2993918050462573e-06,0.003987919810000049,5.025210250737907e-06,0.015096559800000001,0.00012978765842696597,0.0643554297,0.001325007299991444
10,1.1,-0.005033078900000086,1.0302360802646783e-05,0.005023753750000166,1.0193906049624278e-05,0.01907005770000001,0.00017275255217421242,0.08139508384999994,0.0017251282623299761
11,1.2,-0.0063688824149997665,1.5893466900747762e-05,0.00634572642000008,1.585826374226284e-05,0.0244663249,0.0002261056253388345,0.10530453084999991,0.0022770834391125628
12,1.3,-0.007766949360000311,2.828187681785326e-05,0.007726469040000151,2.802452876545894e-05,0.029721472049999947,0.00027266843471929604,0.12747861849999972,0.0027346271578577394
13,1.4,-0.010175428800000035,1.2995212220416035e-05,0.01012001360000026,1.3865409484344423e-05,0.03851375240000007,0.000340889159047089,0.1638660609999999,0.0034734658484631416
14,1.5,-0.012307539599999846,2.9336100991111827e-05,0.012229112199999887,2.9848208350637134e-05,0.04607332744999999,0.00041511218146739637,0.19462711599999968,0.0040963026104170255
15,1.6,-0.015406854450000033,2.139746447936482e-05,0.015278982450000308,2.25947594334126e-05,0.05753607385000006,0.0005135593148063582,0.2424406934999998,0.005100224429150526
16,1.7,-0.01903119375000003,4.076507435725177e-05,0.018856865799999824,4.367469673245748e-05,0.07118148824999997,0.000651440149945204,0.29971651549999984,0.006365385688453668
17,1.8,-0.023948736700000032,3.0351601516317643e-05,0.023677141999999946,3.512709048176766e-05,0.08940574589999993,0.0008051547103434232,0.37446769550000064,0.007886508943141744
18,1.9,-0.03019299940000018,1.7276016856959017e-05,0.029783598600000117,2.455105722567266e-05,0.1119619190000002,0.0009982979553987063,0.4647964784999996,0.009703457948898249
19,2.0,-0.03828333985000001,1.1493480644501853e-05,0.03761678640000011,2.2916452831631268e-05,0.14258535899999983,0.0012815547067545848,0.5903019705000007,0.012530533147988125
20,2.1,-0.047953781599999995,1.9899632024775747e-05,0.04685446289999993,2.8895044656709883e-05,0.17775644349999997,0.0016227047303537417,0.729412570000001,0.01555691202393198
21,2.2,-0.06024454399999989,2.3071904235596257e-05,0.05837529614999991,3.0379489839296785e-05,0.22263439499999976,0.0020587584018134605,0.9039663645000011,0.019448454408817276
22,2.3,-0.07559285285,7.166320748098169e-05,0.07249074639999976,8.039506638838605e-05,0.27826218350000004,0.002564154042191925,1.1146790675000011,0.023964029913153488
23,2.4,-0.09402619159999988,6.990941118177241e-05,0.08904770275000005,8.12686363779376e-05,0.3454239455,0.0031844131876362994,1.361737324999999,0.02939505086881296
24,2.5,-0.11696233300000006,7.923953311655949e-05,0.10932049349999991,0.00012292883324482596,0.4266983395000005,0.0039397846158443165,1.6481497149999982,0.03587363266455987
25,2.6,-0.1460378939999998,0.0001692403078010191,0.13468952450000007,0.00020898808868621772,0.5268675694999994,0.004880343067862953,1.980712184999997,0.04334220529819128
26,2.7,-0.17942473000000017,0.00019391822163058846,0.16231746699999985,0.0002688927815052533,0.6446534005000008,0.006032976739110249,2.3577522649999962,0.052618995259596756
27,2.8,-0.2202330514999995,0.0003037846727951512,0.1944420590000001,0.0004182660446692117,0.7856359985000015,0.007441509702304087,2.7712266749999985,0.06293322436937948
28,2.9,-0.26943174349999965,0.0003975097268109639,0.23066963950000002,0.0005524101633249353,0.9514474729999995,0.009058000341241964,3.2111939950000057,0.07421870340366964
29,3.0,-0.3261596830000009,0.0004814740118654902,0.2702432565,0.0007119075651128656,1.1352788050000013,0.010833005753287876,3.6358291199999893,0.08559830519426238
30,3.1,-0.3931615185,0.0006061009644452943,0.31251775350000044,0.0008943376952405834,1.345184869999998,0.012797625311593565,4.039092434999994,0.09717796966263165
31,3.2,-0.469271457,0.0008373538696369607,0.3567324265000001,0.0012416001502718026,1.5720099249999997,0.015167070129558336,4.386995809999999,0.1091855732023869
32,3.3,-0.5560968340000004,0.0011606185205753742,0.4014107705000009,0.0015850198731357681,1.817662285,0.017733651832618463,4.652840165000001,0.12007324769316875
33,3.4,-0.6535862014999991,0.0015644023992216374,0.4453710560000009,0.001999128931837915,2.0733858599999997,0.020413008408556796,4.820994515000006,0.1296584203621909
34,3.5,-0.7614951534999986,0.0020898956402279904,0.48836411350000075,0.002576996924200718,2.3300989999999997,0.0234019783380296,4.868955769999997,0.13857250732171672
35,3.6,-0.8781430379999993,0.0028419511451038063,0.5273476330000001,0.003122787059181238,2.5817165799999997,0.026716745063799775,4.813045475000001,0.1459781793332715
36,3.7,-1.0052591670000006,0.003425051767174085,0.5605797629999996,0.003493197048656603,2.816904929999993,0.029575729379934135,4.655839855000003,0.15271485301761614
37,3.8,-1.1390971199999975,0.004324325647165558,0.5885611709999989,0.0041316862691517,3.033796065000003,0.03230777053455151,4.43529950500001,0.15962585373599744
38,3.9,-1.276983089999999,0.005224269848735311,0.6123148275000007,0.0045480692246743564,3.2140376999999902,0.035121525203670546,4.192452785000006,0.16635932919510701
39,4.0,-1.4185031550000002,0.006278032123842104,0.6300175309999998,0.004934303299139312,3.3581405199999983,0.03789800804738788,3.973324769999998,0.17547684867459123
40,4.1,-1.567008705000004,0.007689961930904734,0.643450552,0.0050978977966356954,3.4680867250000103,0.04037392471253145,3.773611849999997,0.18454407574316514
41,4.2,-1.7153957199999996,0.008456046515379212,0.6526311980000005,0.00545085995842032,3.5482311299999987,0.04195604387056244,3.600769239999998,0.19254526608944603
42,4.3,-1.8660961549999988,0.009872751373764976,0.6555371029999992,0.005198293204902034,3.5945613850000013,0.04282101922424385,3.4726335449999937,0.19861040133310293
43,4.4,-2.0194432000000004,0.011138354374716802,0.653063984499999,0.004972192335013598,3.6121742050000027,0.043116557093867934,3.3626073499999958,0.20165663568434095
44,4.5,-2.169628630000001,0.012390512006053586,0.6480014029999989,0.00448141013545025,3.602383714999996,0.04248933920925018,3.270102529999996,0.20034313435123022
45,4.6,-2.318946379999997,0.013271180252041596,0.6398358940000003,0.004019519327126985,3.5728117900000003,0.040908766403967,3.1835355299999955,0.19352298957076622
46,4.7,-2.464463549999999,0.014002004743402827,0.6275677809999994,0.00339393324350386,3.5214095499999982,0.038275526119336045,3.0862257800000026,0.18421626166221217
47,4.8,-2.6054100600000067,0.014411821838500021,0.6096412355000002,0.0026163009676141474,3.4545089749999986,0.03649566370938934,2.982316894999997,0.17218512852007498
48,4.9,-2.7433340149999985,0.015053385123357623,0.5893374419999995,0.0019203928269840391,3.3767220899999923,0.03415701819880498,2.8651717699999995,0.15630972050448386
49,5.0,-2.8770545250000024,0.015430332386620867,0.5653682864999996,0.0016467167953700878,3.2844344349999983,0.032103135746313426,2.721346910000003,0.13840219016415714
50,5.1,-3.0050900250000057,0.015462578422590304,0.5382132005000007,0.001515226172247123,3.180433175000007,0.03135840577814014,2.565702860000003,0.12125463057661495
51,5.2,-3.1247074199999942,0.015037774503525095,0.5072868104999997,0.0020623174294252516,3.076434340000003,0.031228851787794082,2.4044124400000033,0.10606173937710257
52,5.3,-3.238803750000003,0.014764950247482629,0.47239694099999974,0.0029714924033968047,2.966956235,0.03177011960409109,2.2148480099999994,0.09021869942640025
53,5.4,-3.3431232250000003,0.013803485236755722,0.4340937875000002,0.003774678050118942,2.8584495250000073,0.033591467616516664,2.0228440550000015,0.07743231618898701
54,5.5,-3.437540269999998,0.012841154788526142,0.3940862885000005,0.004411864674056287,2.752845729999997,0.03603578403153495,1.8242894400000038,0.06606273905483458
55,5.6,-3.523689895,0.011792083943677442,0.352632226,0.005073328468381566,2.6512156750000013,0.03902520369830482,1.6178430250000002,0.05682627370093653
56,5.7,-3.600312419999999,0.010577965933155626,0.3103276419999995,0.005329232526476732,2.559304305000004,0.04222261572456829,1.4179956150000002,0.04923720197719238
57,5.8,-3.6664866749999927,0.009283007985310121,0.27008799299999986,0.00532532208213879,2.476509794999997,0.04536682089251942,1.2246552895000034,0.042222262073418976
58,5.9,-3.7239778300000013,0.008100268946666836,0.23189193300000024,0.005166385745566724,2.4004385900000034,0.0483830112812175,1.0359886550000001,0.036606602607331305
59,6.0,-3.773312780000005,0.00693485849609813,0.19646317100000008,0.004819862390567188,2.334005430000003,0.05106320530875856,0.8661324635000002,0.03143623858600197
60,6.1,-3.8147496500000035,0.0058922135720607515,0.16487150849999993,0.004424206220172764,2.278273204999995,0.0535654098192444,0.7201253570000001,0.02644110730819943
61,6.2,-3.849183475000008,0.004904830420796452,0.137169798,0.003907491529755056,2.2321034300000036,0.0557083905189997,0.5961374530000001,0.022407169503497273
62,6.3,-3.877749189999996,0.00411372265529365,0.11324008554999979,0.0034306511887145542,2.1937379700000004,0.05759603171628602,0.49082583499999993,0.018615180393937805
63,6.4,-3.901471919999998,0.0034175868245518585,0.0927157636500001,0.002934506862590248,2.1611057999999956,0.059125427455055855,0.39803259650000034,0.015630384068892174
64,6.5,-3.9210844499999964,0.002804821577196579,0.0753259403499999,0.002481520808527684,2.1340641299999996,0.06046290912986541,0.3206034315000002,0.012788390254069136
65,6.6,-3.9368687500000026,0.0022573391879387333,0.060874634899999926,0.0020640583818269612,2.1127295200000002,0.06156081725870004,0.25926444200000043,0.010355879966772053
66,6.7,-3.9495532399999917,0.0018352964761685756,0.049067624550000064,0.0017105978372177265,2.095284450000001,0.062443316840860776,0.20794641600000002,0.008411477067234671
67,6.8,-3.9597926799999965,0.0015078440063692536,0.03938621945000003,0.001429407993017829,2.0815458900000006,0.0632065947188383,0.1685677625000001,0.006501038880439335
68,6.9,-3.9679671600000073,0.0011872848854503728,0.0315110156,0.001135627629859168,2.0708830049999962,0.06381078716441796,0.1382418555000001,0.0051667838535468386
69,7.0,-3.9744868450000017,0.0009546645852316289,0.02517844975000004,0.000922365621150397,2.0622233749999968,0.06428446698667956,0.11220319760000015,0.004192200514666001
70,7.1,-3.9797608050000006,0.0007908987629493676,0.02002051499999998,0.0007714928762478843,2.0553030050000034,0.06469609670578297,0.09156210890000008,0.003308448171455101
71,7.2,-3.983914784999997,0.0006090702527987204,0.01591499395,0.0005990252150983095,2.0498000450000036,0.06498976307771108,0.07495770979999991,0.002690910467817778
72,7.3,-3.9870111449999954,0.0004430780683040233,0.0128688728,0.0004351735280517122,2.0452555999999946,0.06519285479604628,0.060302478900000116,0.002362706768355908
73,7.4,-3.989524520000008,0.0003666985243627033,0.01040228789499999,0.00036013613445215644,2.0414218100000006,0.06536647146496784,0.04796749404999998,0.0019194197660702679
74,7.5,-3.991649820000005,0.00031262140788177253,0.008308486150000014,0.0003082267538400963,2.038253079999998,0.06551925459076004,0.0378704317,0.0015616135581501807
75,7.6,-3.9934210450000123,0.0002714032390900885,0.0065498809199999964,0.00026924199296558376,2.035753805,0.06565043689495641,0.030093760650000002,0.0012373053116374417
76,7.7,-3.994822980000009,0.00020545640658090606,0.005154929559999998,0.00020394542833071717,2.033800329999998,0.06575673238768298,0.02408452729999999,0.0009422882303139268
77,7.8,-3.9958648200000093,0.00014847237454171687,0.0041191713399999965,0.00014740683784688873,2.0322259449999995,0.06582986434118264,0.019002547699999997,0.0008051569802251061
78,7.9,-3.996755980000008,0.000134597240778098,0.0032338151950000106,0.00013373431996527172,2.03080181,0.0658889720522419,0.01420114909,0.0007154703338667504
79,8.0,-3.9974363300000135,0.0001017637022194739,0.0025573707400000016,0.00010121088407263254,2.0298445399999965,0.06595429485284725,0.011083621149999997,0.0004921098259570324
80,8.1,-3.9979025300000077,7.022383761204061e-05,0.0020932452600000025,6.991272282848179e-05,2.029253774999996,0.06599518823921662,0.009182659255000008,0.0004197302299881054
81,8.2,-3.998315035000005,6.458890379009176e-05,0.0016822429999999995,6.434039111074524e-05,2.028665965,0.06602311064845963,0.007148075055,0.0004115177195520671
82,8.3,-3.998665365000001,5.334616805301498e-05,0.0013330867399999986,5.31635898137834e-05,2.0281734449999984,0.066051795642615,0.005457591164999994,0.00028462988840918785
83,8.4,-3.9989405300000094,3.968584120033285e-05,0.0010584864760000011,3.957394519440778e-05,2.0278401800000028,0.06607579571242855,0.0044824931749999995,0.00021384593851509262
84,8.5,-3.999136475000022,2.8456028672879046e-05,0.0008627689009999993,2.8411591830801078e-05,2.027526095000002,0.06608400977789453,0.003408108560000006,0.00023356155865864384
85,8.6,-3.9992868900000076,2.1406667564994746e-05,0.0007127108139999982,2.1375255586659202e-05,2.027285019999997,0.06609799489039195,0.002599844769999996,0.0001880587386818794
86,8.7,-3.9994076250000044,1.7895176608173358e-05,0.0005923001440000006,1.783320329577135e-05,2.0271142750000024,0.06610728835760324,0.0020944238849999962,0.0001806570930489752
87,8.8,-3.999495529999999,1.4631545627197242e-05,0.0005043287265000015,1.4574306496098187e-05,2.0269917900000003,0.06611470745079966,0.0017295572944999993,0.0001477837570035452
88,8.9,-3.999584175000009,1.5148525973083333e-05,0.0004159187874999985,1.5038909107512476e-05,2.026857774999999,0.06612060188129594,0.001335712152000002,0.00013311454004905936
89,9.0,-3.999668980000012,1.4666416111726015e-05,0.0003306717984999965,1.4776412823719683e-05,2.0267595200000033,0.06612797673113788,0.0011215364429999987,0.00012271132334779164
90,9.1,-3.9997448650000074,1.4627901983677067e-05,0.00025516095499999856,1.4615979134780663e-05,2.0266732850000024,0.06613353641280967,0.0009293236060000002,9.826713438345778e-05
91,9.2,-3.999824925000025,1.5138600414427322e-05,0.000175150051999999,1.5055247006900149e-05,2.0265894400000004,0.06613918726422242,0.0007569898080000019,7.942937258630574e-05
92,9.3,-3.9998876099999725,8.736686538662692e-06,0.00011234534900000032,8.7439059130362e-06,2.0265107700000016,0.06614145797138414,0.0005439300670000007,5.6249989371101894e-05
93,9.4,-3.9999196850000427,4.720892043425703e-06,7.846481065000138e-05,4.6738893357673706e-06,2.0264473649999983,0.06614301195581071,0.0003205116235000002,3.577044504576831e-05
94,9.5,-3.9999392549999895,3.4512457348692872e-06,6.042645029999946e-05,3.242843372970808e-06,2.026421794999997,0.0661456724825079,0.0002567803844999998,1.4517221626573471e-05
95,9.6,-3.999951479999998,3.1396021638374863e-06,4.807404669999954e-05,2.904089138712316e-06,2.02641211,0.06614677125053264,0.0002391076625000001,1.0699350226496408e-05
96,9.7,-3.999965044999988,2.8421648125967863e-06,3.564228945000048e-05,2.4773762596119717e-06,2.026403935000002,0.06614756795466589,0.00022543194749999988,9.988790622378296e-06
97,9.8,-3.9999734999999146,2.115619978410752e-06,2.839393980000065e-05,1.6676578119272555e-06,2.0263975399999974,0.0661483181672555,0.00021170636124999968,1.1547068067598348e-05
98,9.9,-3.9999819949999047,2.4784782778075137e-06,1.9031083605000172e-05,2.6007053039992365e-06,2.026374065000002,0.0661477452081154,0.00012558090363999996,2.7929651162261962e-05
99,10.0,-3.9999958799999864,2.4017294214476668e-06,5.414996234999923e-06,1.9937120116382234e-06,2.0263426900000003,0.0661479777459066,1.9013000538000033e-05,1.3088059541088737e-05
100,10.1,-3.9999997499999997,6.361416972641458e-07,2.4156559949999176e-06,5.454464785112315e-07,2.0263382249999977,0.06614882431784429,6.594874925999994e-06,2.725451125419635e-06
101,10.2,-4.0,0.0,2.22986393999992e-06,2.0365086433115117e-07,2.026337979999998,0.06614883518523797,6.052356433500002e-06,1.0299682503303887e-06
102,10.3,-4.0,0.0,2.22588897999992e-06,2.0210806664132808e-07,2.026337994999998,0.06614882626798496,6.069193289000005e-06,1.0359508155510528e-06
103,10.4,-4.0,0.0,2.24079507999992e-06,2.0779422313214477e-07,2.0263379749999983,0.06614882960160219,6.076840661499997e-06,1.0369953959694278e-06
104,10.5,-4.0,0.0,2.24278255999992e-06,2.085323897481726e-07,2.0263379199999982,0.06614882881133545,6.061079038999998e-06,1.039064284441867e-06
105,10.6,-4.0,0.0,2.2248952399999197e-06,2.0171926570142678e-07,2.026337999999998,0.06614882638728524,6.0999266735e-06,1.0352782532183861e-06
106,10.7,-4.0,0.0,2.2457637799999196e-06,2.096311350955549e-07,2.026337994999998,0.06614883369043884,6.081857694500004e-06,1.037075806952183e-06
107,10.8,-4.0,0.0,2.2258889799999204e-06,2.0210806664132822e-07,2.026337994999998,0.0661488258506632,6.1060924669999955e-06,1.047876525665769e-06
108,10.9,-4.0,0.0,2.2119766199999196e-06,1.9654790960561554e-07,2.026337899999998,0.06614882191435267,6.066730993999997e-06,1.0418375718299978e-06
109,11.0,-4.0,0.0,2.2258889799999195e-06,2.021080666413283e-07,2.0263379549999985,0.06614881872988745,6.051421193000002e-06,1.0437514520440613e-06
110,11.1,-4.0,0.0,2.22390149999992e-06,2.0132920981400693e-07,2.0263379799999974,0.06614883345582327,6.085376165500003e-06,1.0495124258667071e-06
111,11.2,-4.0,0.0,2.2427504849999206e-06,2.1337841041840338e-07,2.026337949999998,0.06614882394619954,5.998383455497046e-06,1.0192786017693593e-06
112,11.3,-4.0,0.0,1.8357515499999446e-06,3.5831109306927716e-07,2.0263371749999983,0.06614887598071302,4.420141398086884e-06,1.1232321218640152e-06
113,11.4,-4.0,0.0,1.1664810649999816e-06,4.559523727511864e-07,2.0263360649999984,0.0661489426639354,2.3274150767970843e-06,1.029799212053562e-06
114,11.5,-4.0,0.0,5.836793749999958e-07,4.178297441659115e-07,2.0263351699999976,0.06614899026640747,9.302211973595045e-07,7.57920356146637e-07
115,11.6,-4.0,0.0,1.6549969999999975e-07,2.5417628316454497e-07,2.026334694999998,0.06614894902865638,1.5676840403928002e-07,2.6681058877602846e-07
116,11.7,-4.0,0.0,9.969475000000002e-09,6.384138737432146e-08,2.026334524999997,0.06614895796032494,5.626078426211649e-09,4.154574713373759e-08
117,11.8,-4.0,0.0,1.993895e-09,2.8579344348846424e-08,2.026334519999997,0.06614896103887866,5.099474380061487e-10,7.298747947155254e-09
118,11.9,-4.0,0.0,0.0,0.0,2.026334519999997,0.06614896103887866,7.140985346499972e-13,2.0899117026353442e-11
119,12.0,-4.0,0.0,0.0,0.0,2.026334519999997,0.06614896103887866,7.106542246499976e-13,2.089881701425456e-11
120,12.1,-4.0,0.0,0.0,0.0,2.026334519999997,0.06614896103887866,7.101200496499967e-13,2.0898883202394867e-11
121,12.2,-4.0,0.0,0.0,0.0,2.026334519999997,0.06614896103887866,7.175964341499971e-13,2.089988183592399e-11
122,12.3,-4.0,0.0,0.0,0.0,2.026334519999997,0.06614896103887866,7.201981061499979e-13,2.0899253906804888e-11
123,12.4,-4.0,0.0,0.0,0.0,2.026334519999997,0.06614896103887866,7.07291443149997e-13,2.0900757271221428e-11
124,12.5,-4.0,0.0,0.0,0.0,2.026334519999997,0.06614896103887866,7.17146051649997e-13,2.090174006686848e-11
125,12.6,-4.0,0.0,0.0,0.0,2.026334519999997,0.06614896103887866,7.181789526499969e-13,2.089567633591333e-11
126,12.7,-4.0,0.0,0.0,0.0,2.026334519999997,0.06614896103887866,7.127591696499974e-13,2.0900601902965202e-11
127,12.8,-4.0,0.0,0.0,0.0,2.026334519999997,0.06614896103887866,7.079704601499982e-13,2.0899451053542034e-11
128,12.9,-4.0,0.0,0.0,0.0,2.026334519999997,0.06614896103887866,7.093270191999983e-13,2.089892420862709e-11
129,13.0,-4.0,0.0,0.0,0.0,2.026334519999997,0.06614896103887866,7.091429446499977e-13,2.0897181347476912e-11
130,13.1,-4.0,0.0,0.0,0.0,2.026334519999997,0.06614896103887866,7.174585391499971e-13,2.0898630092002854e-11
131,13.2,-4.0,0.0,0.0,0.0,2.026334519999997,0.06614896103887866,7.073386646499968e-13,2.0898609987799386e-11
132,13.3,-4.0,0.0,0.0,0.0,2.026334519999997,0.06614896103887866,7.146636486499968e-13,2.0895652520365324e-11
133,13.4,-4.0,0.0,0.0,0.0,2.026334519999997,0.06614896103887866,7.110704511499966e-13,2.090042507807523e-11
134,13.5,-4.0,0.0,0.0,0.0,2.026334519999997,0.06614896103887866,7.09518414649997e-13,2.0901550259632853e-11
135,13.6,-4.0,0.0,0.0,0.0,2.026334519999997,0.06614896103887866,7.258375586499972e-13,2.0900348250352624e-11
136,13.7,-4.0,0.0,0.0,0.0,2.026334519999997,0.06614896103887866,7.193788541499959e-13,2.0900809784394723e-11
137,13.8,-4.0,0.0,0.0,0.0,2.026334519999997,0.06614896103887866,7.145726491499983e-13,2.0899834759776037e-11
138,13.9,-4.0,0.0,0.0,0.0,2.026334519999997,0.06614896103887866,7.064574151499966e-13,2.0900240513305827e-11
139,14.0,-4.0,0.0,0.0,0.0,2.026334519999997,0.06614896103887866,7.17629909149997e-13,2.0900113463118657e-11
