#,Seq,mod,pH,cp,cs,chains,Blocks,B_size,E_bond,E_bondErr,E_bondNef,E_bondTau,E_coul,E_coulErr,E_coulNef,E_coulTau,E_kin,E_kinErr,E_kinNef,E_kinTau,E_nonbond,E_nonbondErr,E_nonbondNef,E_nonbondTau,E_tot,E_totErr,E_totNef,E_totTau,T_kin,T_kinErr,T_kinNef,T_kinTau,q_E2,q_E2Err,q_E2Nef,q_E2Tau,q_H4,q_H4Err,q_H4Nef,q_H4Tau,q_c6,q_c6Err,q_c6Nef,q_c6Tau,q_n0,q_n0Err,q_n0Nef,q_n0Tau,q_net,q_netErr,q_netNef,q_netTau
27,nGEAHGc,2beadAA,1,0.0077,0.15,1,16,5625,23.0074278731439,0.081609030912367,21631.647762,0,-14.443514711243,0.065079331392009,20545.2823634474,0,75.0157928760412,0.206647284374913,27811.8492171723,0,3.79569265094453,0.052702691286244,24375.6699111696,0,87.3753986888866,0.207139515629093,31872.0826172625,0,1.00014495304097,0.002752519938655,27859.5378932248,0,-0.003255555555556,0.001641879882124,19259.7648253875,0,1,0,,,0,0,,,1,0,,,1.99674444444444,0.001641879882124,19259.7648253875,0
11,nGEAHGc,2beadAA,1.25,0.0077,0.15,1,16,5625,23.0473485590512,0.066575691419261,32175.8571078332,0,-14.4425560092317,0.05528246664127,28258.9363539957,0,75.0079912670055,0.219597057389969,24881.8235883685,0,3.77806871926608,0.043999895881273,34814.8250043511,0,87.3908525360911,0.237425267662831,24500.8420096419,0,0.999986880822689,0.002926747431803,24893.2767530654,0,-0.006,0.001842381711365,28112.7425314037,0,1,0,,,0,0,,,1,0,,,1.994,0.001842381711364,28112.7425314041,0
12,nGEAHGc,2beadAA,1.5,0.0077,0.15,1,16,5625,22.9723900101867,0.055716050224297,45699.3715782002,9.84696254841146,-14.4675720673629,0.047223758055495,38841.319613728,11.5856002033831,74.9979186443551,0.214112386041885,25756.2713768912,17.4714730184207,3.81562534534641,0.05059524837439,26439.4486498354,17.0200221031946,87.3183619325253,0.222621565246173,27477.9437736999,16.3767712796321,0.999757023769873,0.002865577101075,25544.0730875942,17.6166110578122,-0.010755555555556,0.002596610642987,25249.1992966589,17.8223473595863,1,0,,,0,0,,,1,0,,,1.98924444444444,0.002596610642987,25249.1992966586,17.8223473595865
10,nGEAHGc,2beadAA,1.75,0.0077,0.15,1,16,5625,23.0038794788016,0.049610799013189,58507.2733923415,7.69135142231084,-14.4809357429602,0.040488618250836,52694.2158781172,8.53983673393251,75.0895064000298,0.19231101822115,32090.7260737459,14.0227428755459,3.81434013854996,0.032952505095369,62302.9029187076,7.22277742032136,87.4267902744211,0.186116297527627,39385.7288384554,11.4254582482766,1.00083502087077,0.00257399545538,31796.0647612034,14.1526948004833,-0.017788888888889,0.003534437283866,22378.8576479968,20.1082650195952,0.999988888888889,4.44444444444581E-05,89999.9999999449,5.00000000468878,0,0,,,1,0,,,1.9822,0.003547769252173,22224.6028722351,20.2478308840286
20,nGEAHGc,2beadAA,2,0.0077,0.15,1,16,5625,22.9883825598393,0.059556719851758,39938.0098288534,11.2674618076234,-14.4665735040437,0.051692366642402,32612.8925634098,13.7982241085838,75.0229445265716,0.16630785608154,42693.0504411574,10.5403571721659,3.80137223459801,0.050771939141644,26188.3879692395,17.1831882492217,87.3461258169652,0.17529314753549,43704.9201940828,10.2963235814356,0.999665966189907,0.002184584261682,43884.5742174847,10.2541726436485,-0.031955555555556,0.004692570083842,22477.3414141072,20.0201612872538,0.999977777777778,8.88888888888884E-05,44999.4999944449,10.0001111228935,0,0,,,1,0,,,1.96802222222222,0.004680149834048,22611.9960680068,19.9009410343827
3,nGEAHGc,2beadAA,2.25,0.0077,0.15,1,16,5625,23.0108575395101,0.096679020753454,15239.2207743025,29.5290689126257,-14.5193853024374,0.05184699376936,33225.9664946294,13.5436240956853,75.1292062092916,0.17436577243774,39381.5424238973,11.4266728198545,3.79217902839114,0.056442645423498,21253.0701426086,21.173411530644,87.4128574747555,0.216967521094026,29200.2408001459,15.4108318317994,1.00061059030717,0.002315877232081,39548.2740323495,11.3784990983679,-0.055611111111111,0.006126577062443,22387.2860347949,20.1006946406855,0.999955555555556,0.000102640047856,67497.749974988,6.66688890497606,0,0,,,1,0,,,1.94434444444444,0.00615205944306,22218.9081654524,20.2530204035313
4,nGEAHGc,2beadAA,2.5,0.0077,0.15,1,16,5625,23.0410413651684,0.083633105774697,20710.5040721129,0,-14.5869511043907,0.062221856566378,23228.9268981927,0,75.1751674675085,0.230188640962805,22703.1137572515,0,3.778208320796,0.051992842043383,24936.2081229832,0,87.4074660490823,0.22599393726863,26887.028963713,0,1.00043102046444,0.003098490638481,22151.2361672896,0,-0.095388888888889,0.010950874215812,11512.9583844488,0,0.999966666666667,7.16645133182313E-05,103843.846128141,0,0,0,,,1,0,,,1.90457777777778,0.010956362377323,11505.0225205405,0
31,nGEAHGc,2beadAA,2.75,0.0077,0.15,1,16,5625,23.0042937071504,0.053754546186937,49237.6623975688,0,-14.6773337952062,0.051330100634422,34850.3704404336,0,75.2913360518698,0.187985574920317,33919.5344156423,0,3.7975765518409,0.043612179124846,35570.9305953437,0,87.4158725156548,0.177755280309926,43314.8782541169,0,1.00067602459329,0.002490715244766,34000.8658336087,0,-0.160077777777778,0.010606838387386,19121.5469088925,0,0.999733333333333,0.000515248950976,16067.3213829355,0,0,0,,,1,0,,,1.83965555555556,0.010849294604519,18304.1077566091,0
19,nGEAHGc,2beadAA,3,0.0077,0.15,1,16,5625,23.0104600576697,0.050822930285027,54669.1317651385,0,-14.8093292335991,0.04856308488327,38998.9875887432,0,75.3855543189073,0.175227653417606,38994.3702176583,0,3.79536868877365,0.025390439780561,102234.22927608,0,87.3820538317516,0.151102646719673,59879.9402976245,0,1.00008886333862,0.002274466442397,40496.9230751649,0,-0.252377777777778,0.014300801439454,14761.7337736781,0,0.999866666666667,0.0002385139176,37495.4166157363,0,0,0,,,1,0,,,1.74748888888889,0.014325973419049,14721.9804749206,0
17,nGEAHGc,2beadAA,3.25,0.0077,0.15,1,16,5625,23.0068987256346,0.077398291691652,23618.1582599597,19.053136805421,-14.9855724711809,0.034194029856631,81331.6184590967,5.53290354901039,75.5734369242003,0.168718467449387,42628.1607314933,10.5564019816281,3.79907549059179,0.043110727990221,35928.3033661658,12.5249443546746,87.3938386692458,0.191601228929114,37354.5901875571,12.0467122824705,1.00012842945772,0.002194785096096,43805.5096376631,10.2726804034759,-0.374833333333333,0.014098867829513,18862.113269137,23.8573480075217,0.999077777777778,0.000803531300847,22832.5329116163,19.7087201039422,0,0,,,1,0,,,1.62424444444444,0.014164456763002,18768.2047785889,23.9767205083176
5,nGEAHGc,2beadAA,3.5,0.0077,0.15,1,16,5625,23.0107680509235,0.066283471742925,32369.5027952969,0,-15.2368700386943,0.060058468523294,26694.3555449805,0,75.7967709361667,0.151060767289504,53413.3229632938,0,3.80317135002629,0.046551264594337,31145.0929399126,0,87.3738402984221,0.195699643363217,36376.0692218571,0,1.00025648570362,0.00207856076825,48760.4208028526,0,-0.517122222222222,0.010743666523602,34613.8724807625,0,0.998922222222222,0.000706559507365,34505.491545234,0,0,0,,,1,0,,,1.4818,0.01062428617791,35551.3784394157,0
8,nGEAHGc,2beadAA,3.75,0.0077,0.15,1,16,5625,22.9698626950706,0.071208178538109,27908.9876908147,0,-15.4063964539915,0.085596398924966,13100.6737811419,0,75.9821992616792,0.166721067570341,43196.6637778677,0,3.81698639946813,0.056099489814397,21496.5138273947,0,87.3626519022264,0.189751426752274,38282.7064364597,0,0.999876971633344,0.00215124596577,44610.2616321557,0,-0.658922222222222,0.013172836497853,20723.05523843,0,0.998,0.001252881452555,20345.3602877471,0,0,0,,,1,0,,,1.33907777777778,0.013500926961012,19890.4213260336,0
25,nGEAHGc,2beadAA,4,0.0077,0.15,1,16,5625,22.9761576395746,0.054832873294123,46284.1944425054,0,-15.5841623023782,0.086674166910806,12519.8636619562,0,76.1696858877076,0.095365828912987,134240.891554831,0,3.81589405554069,0.02896515977965,79841.3801411196,0,87.3775752804447,0.138405246963573,72510.2739671733,0,1.000125043003,0.001311264267033,121709.723719842,0,-0.770277777777778,0.012096245038562,19349.6909940142,0,0.997,0.001640796755168,17775.9018731593,0,0,0,,,1,0,,,1.22672222222222,0.012169442943857,19419.2172309349,0
32,nGEAHGc,2beadAA,4.25,0.0077,0.15,1,16,5625,22.9781779753424,0.052021841652472,52951.3010314256,0,-15.7179479185117,0.056953902864493,28545.0364964015,0,76.3535021462923,0.222600015552201,24374.1793865415,0,3.82073063886629,0.034633105217704,56498.8430581901,0,87.4344628419893,0.238132503295289,24370.1618017274,0,1.00079883698739,0.003017326559454,22707.6461782022,0,-0.857055555555556,0.008409338332676,27718.9906595883,0,0.995355555555556,0.001871176210709,21125.5220756986,0,0,0,,,1,0,,,1.1383,0.008062953946132,31107.6701674458,0
0,nGEAHGc,2beadAA,4.5,0.0077,0.15,1,16,5625,22.9683022812952,0.048337371822713,61097.5978841446,0,-15.7873566156089,0.061806752394128,23402.2144813857,0,76.4387750309274,0.130715901293493,70929.157707115,0,3.81890271946003,0.032503734230963,64218.0241918548,0,87.4386234160738,0.158873999991012,54796.3956288719,0,1.0007397547113,0.001689789264033,72605.0247528349,0,-0.913122222222222,0.005859917554442,36964.0383715608,0,0.991422222222222,0.002406684791834,23491.9907420173,0,0,0,,,1,0,,,1.0783,0.006807432394264,30257.9551030059,0
18,nGEAHGc,2beadAA,4.75,0.0077,0.15,1,16,5625,22.9580425465085,0.068263707097517,30317.7576970668,0,-15.8743162887528,0.050448591278916,35104.2425326892,0,76.4421530861278,0.148168502793383,54772.2697281358,0,3.83241581058246,0.048040718170021,29613.7226788663,0,87.358295154466,0.158899592367184,54471.4130361519,0,0.999897936911231,0.00198952697009,51884.3054612502,0,-0.952144444444444,0.00679108590261,15808.1686363386,0,0.9855,0.003696734183222,16730.6568670377,0,0,0,,,1,0,,,1.03335555555556,0.008382336906643,13490.6026622636,0
2,nGEAHGc,2beadAA,5,0.0077,0.15,1,16,5625,22.9859935316711,0.08397643161648,20056.9919138241,22.4360663030899,-15.8905023251285,0.045204666719442,43115.6699025951,10.437040673048,76.509844436375,0.198096299673682,31138.4980722089,14.4515640855755,3.80531802015632,0.042124198918933,37619.938306779,11.9617421152976,87.4106536630739,0.249058498941673,22471.5228757427,20.0253450959862,1.00012525030409,0.002516595889805,32911.503837419,13.6730306412636,-0.973355555555555,0.004139270924451,24218.9485042302,18.5804928872323,0.973233333333333,0.003676731416553,30832.7500187742,14.5948707184759,0,0,,,1,0,,,0.999877777777778,0.00602724131424,22780.5759045457,19.7536709477701
26,nGEAHGc,2beadAA,5.25,0.0077,0.15,1,16,5625,22.9807444491524,0.052604766372039,50202.2182986361,0,-15.9010876560379,0.051964982976539,32957.8812627087,0,76.5610201743648,0.166650528234327,43770.7945804746,0,3.80163122746743,0.038421425341254,46473.6937801386,0,87.4423081949468,0.182879258851378,41493.5147683849,0,1.00020570691091,0.002225327836437,41829.779590656,0,-0.984766666666667,0.003405248913752,20699.2860933679,0,0.954566666666667,0.00393311989377,44857.1114061943,0,0,0,,,1,0,,,0.9698,0.005215437673241,33933.4854451642,0
24,nGEAHGc,2beadAA,5.5,0.0077,0.15,1,16,5625,22.966720617419,0.051823276068509,52003.099888691,8.65333030881407,-15.9454063457765,0.049308270635389,36019.1900823159,12.4933403385999,76.5715736978522,0.167910337202322,43015.1008539217,10.4614424117541,3.81848231791691,0.057613003543952,20155.089850716,22.3268665013225,87.4113702874116,0.180785267406897,42204.9020107895,10.6622685749645,0.999622865140687,0.00216493162585,43969.9802527328,10.234255231241,-0.990788888888889,0.002860855436257,17841.2850251279,25.2223984867294,0.923988888888889,0.006417414578827,27286.5384468427,16.4916484843157,0,0,,,1,0,,,0.9332,0.007026609037644,25595.4329022125,17.5812615531186
29,nGEAHGc,2beadAA,5.75,0.0077,0.15,1,16,5625,22.9465398072337,0.068466823947922,30571.2197762075,0,-15.9060985914246,0.056030538580166,28077.4941376562,0,76.6985636414896,0.178423175038868,38310.9085223899,0,3.82256946032287,0.055126710753851,22056.9622879885,0,87.5615743176216,0.194031160003056,37010.3204433236,0,1.00020302950027,0.00224498438024,41051.5952645786,0,-0.994011111111111,0.002105215940558,21491.6125885939,0,0.8717,0.009590495981373,19455.2302574627,0,0,0,,,1,0,,,0.877688888888889,0.01022739965503,17913.3142169068,0
7,nGEAHGc,2beadAA,6,0.0077,0.15,1,16,5625,22.9323648852841,0.075828953005732,24603.5748247384,18.290025072561,-15.9101077832762,0.075573416974897,15293.8283869524,29.42363344439,76.8611907795386,0.171856060046878,41451.4175851139,10.8560822918804,3.83803966966312,0.052146975311589,25464.0170699377,17.6719957099917,87.7214875512097,0.213706391725216,30675.0372106228,14.669908868546,1.00081901750402,0.002156053031957,44451.1984562463,10.1234615949002,-0.997155555555556,0.001500090532247,20167.4150936264,22.313221517482,0.798177777777778,0.011512992839189,19445.4033146427,23.1417159694619,0,0,,,1,0,,,0.801022222222222,0.012132991448175,17792.17480449,25.2920177192467
23,nGEAHGc,2beadAA,6.25,0.0077,0.15,1,16,5625,22.9646407923682,0.045954964615123,67447.1005762353,0,-15.891631443879,0.058282488465942,25892.8445035806,0,77.0168750144277,0.238147531237659,21702.1893721147,0,3.82682013935687,0.05034348528929,26693.0387805541,0,87.9167045022738,0.243095042916497,23915.709267231,0,1.00058612836094,0.003075785454518,21820.6212793912,0,-0.998255555555556,0.00138654320438,14492.952662371,0,0.683722222222222,0.01508095902464,15213.0139133348,0,0,0,,,1,0,,,0.685466666666667,0.015042213303565,15406.2282718226,0
1,nGEAHGc,2beadAA,6.5,0.0077,0.15,1,16,5625,22.9597847703311,0.076525529925836,23924.0997351105,0,-15.8957622425291,0.063781608930691,21575.7414678717,0,77.2139306985026,0.207557183486867,28445.0139359699,0,3.8192269552105,0.056743788689874,20659.5585724482,0,88.0971801815151,0.198157669076027,35654.6210071925,0,1.00053243446025,0.002654298301163,28987.1314425956,0,-0.998811111111111,0.000739346836644,34757.8578919883,0,0.550322222222222,0.013781003206687,20848.8265779617,0,0,0,,,1,0,,,0.551511111111111,0.013665318813391,21276.7179772155,0
30,nGEAHGc,2beadAA,6.75,0.0077,0.15,1,16,5625,22.9727326887666,0.063046466355339,35715.6800810432,0,-15.8938730486303,0.049317098873678,35614.1594468247,0,77.3768860399788,0.209912446470237,28012.1525040309,0,3.83031899267819,0.050973928691096,26193.7335400924,0,88.2860646727933,0.226219308539379,27623.4086912576,0,0.999862058658266,0.002762720067305,26806.3941402026,0,-0.999355555555555,0.000786721069473,16649.0232870196,0,0.407755555555556,0.012229401258608,25835.4065978418,0,0,0,,,1,0,,,0.4084,0.012308163840287,25548.8371938175,0
28,nGEAHGc,2beadAA,7,0.0077,0.15,1,16,5625,22.940979186308,0.060368102203403,38586.2971309388,0,-15.9048819417566,0.045258107845697,42531.1975719635,0,77.5797137663667,0.174985309382839,40104.7694915427,0,3.83545250214344,0.041577703140997,39039.4274116961,0,88.4512635130616,0.189053066926968,39143.4263955687,0,0.999899201677163,0.002202988385174,41807.4657306664,0,-0.999555555555556,0.000535304997482,24805.4226746306,0,0.274355555555556,0.014945814889662,14260.1220837081,0,0,0,,,1,0,,,0.2748,0.0149902969989,14199.3782511365,0
14,nGEAHGc,2beadAA,7.25,0.0077,0.15,1,16,5625,22.9717226340893,0.062056830486336,36283.9169492861,0,-15.8770363456767,0.055632249821328,28358.7140479538,0,77.7228816361698,0.122327533431855,81509.511487601,0,3.83400690297365,0.047502589693145,30031.3026767239,0,88.651574827556,0.171499880312493,47857.6166787915,0,0.999863696425904,0.001548352681808,83812.515006524,0,-0.999722222222222,0.000394697362837,28521.5552831779,0,0.1775,0.009082564130983,28316.6665103618,0,0,0,,,1,0,,,0.177777777777778,0.009129080743774,28067.4795303988,0
15,nGEAHGc,2beadAA,7.5,0.0077,0.15,1,16,5625,22.9627842494688,0.084796492101802,19333.0468766921,0,-15.8935461152314,0.044421680373474,44655.6755541823,0,77.8158451551463,0.173468246303322,40848.4549801463,0,3.82418613966534,0.059831627557677,18723.6339379118,0,88.7092694290491,0.212979759623452,31115.0195841824,0,0.999741629813757,0.002188681288823,42265.3524747648,0,-0.999933333333333,0.000182168013617,32141.0714087288,0,0.109022222222222,0.008806611807195,20039.5979508517,0,0,0,,,1,0,,,0.109088888888889,0.008763530866667,20247.9686862344,0
16,nGEAHGc,2beadAA,7.75,0.0077,0.15,1,16,5625,22.9688732068563,0.06611360722827,31886.2560555262,14.1126634508446,-15.8748204338097,0.059147736869369,25429.1839184489,17.6962029871756,77.9087327430275,0.165573113675417,44865.0371869834,10.0300819665798,3.83188926071409,0.045979275425155,32126.6044619615,14.0070825397033,88.8346747767882,0.182231531680698,42302.8069601031,10.6375919887184,1.00008361459753,0.002158139571823,43421.2985607763,10.3635776758089,-0.999988888888889,4.44444444444581E-05,89999.9999999449,5.00000000465967,0.0653,0.006010087542072,27036.3858779564,16.6442364911648,0,0,,,1,0,,,0.065311111111111,0.006025897470852,26898.9597172518,16.7292715089827
13,nGEAHGc,2beadAA,8,0.0077,0.15,1,16,5625,22.9632797036138,0.079550300608046,22425.5240062414,20.066420757492,-15.8714109157252,0.043705124040874,45566.278654783,9.87572419125432,78.0148589118823,0.232323127402084,22657.1892870434,19.8612455726717,3.83233727665248,0.060835607819088,18139.6542248222,24.8075291204116,88.9390649764234,0.231370679088969,26206.5293049571,17.1712932750448,1.00092367708573,0.003003605590887,22288.7353451677,20.1895708055073,-0.999933333333333,0.000223698798082,21314.6052499972,21.1122840483539,0.038033333333333,0.008480694124864,8139.28811523257,55.2873904997056,0,0,,,1,0,,,0.0381,0.008457619351974,8197.53799469474,54.8945306148877
21,nGEAHGc,2beadAA,8.25,0.0077,0.15,1,16,5625,22.9541951816219,0.051903682131818,51768.5159804376,8.69254201895882,-15.8617216584837,0.064713265947056,21183.6108368346,21.2428373937376,77.9783729215304,0.174468970662391,41091.2774037915,10.9512292839447,3.83818347814474,0.044377308441935,34469.3370230674,13.0550813935861,88.9090299228133,0.176585916593728,46180.4288486572,9.74438764728317,1.00010961778964,0.002279044147143,39584.7171168145,11.3680236514296,-1,0,,,0.020166666666667,0.004806785327554,13683.6413967052,32.885983151199,0,0,,,1,0,,,0.020166666666667,0.004806785327554,13683.6413967052,32.885983151199
9,nGEAHGc,2beadAA,8.5,0.0077,0.15,1,16,5625,22.9575909144165,0.035514244987768,112129.992371123,4.01319924226612,-15.8556452419792,0.052786066056783,31575.0614536342,14.2517537481246,78.0166210829611,0.165846775943281,44733.8018754365,10.0595071635571,3.83087313525228,0.054528266699615,23227.452985356,19.3736265746745,88.9494398906507,0.171957418646986,47810.6367323889,9.41213150826428,1.00046212894429,0.00210997397879,45420.7141143142,9.90737396348595,-1,0,,,0.013022222222222,0.003748540456705,14635.0051662742,30.7481955289023,0,0,,,1,0,,,0.013022222222222,0.003748540456705,14635.0051662742,30.7481955289023
22,nGEAHGc,2beadAA,8.75,0.0077,0.15,1,16,5625,22.9551877008178,0.066866512210395,31507.1119329064,0,-15.8505150572263,0.053444143665193,30791.6370084824,0,77.9517521740531,0.239414791723247,21406.3862311782,0,3.83978321702197,0.043972626456644,35529.2679491419,0,88.8962080346666,0.239597103802471,24487.4778425794,0,0.999513116283222,0.003065953064864,21451.0377772496,0,-1,0,,,0.006933333333333,0.001853214313613,32077.0189880092,0,0,0,,,1,0,,,0.006933333333333,0.001853214313613,32077.0189880092,0
6,nGEAHGc,2beadAA,9,0.0077,0.15,1,16,5625,22.9631708567763,0.076876202060042,23949.1538556569,0,-15.8830086416416,0.05141464781381,33467.296580457,0,77.9535768740024,0.171832154102443,41474.1414858165,0,3.84637288596153,0.040463739636471,40921.5824828278,0,88.8801119750986,0.194579723086046,37213.115996413,0,0.999468573932346,0.002195557814048,41757.6656027511,0,-1,0,,,0.0033,0.001733333333333,17516.1650382572,0,0,0,,,1,0,,,0.0033,0.001733333333333,17516.1650382572,0
