Term,Method,Aminoacid,pKa,pH,pH-pKa,Degree_dissociation,Degree_dissociationErrUp,Degree_dissociationErrDown,Degree_ionization,Degree_ionizationErrUp,Degree_ionizationErrDown
N-term,MD,Glu,4.08,2.501536626,-1.578463374,0.037339906,0.034163178,,0.037339906,0.034163178,
N-term,MD,Glu,4.08,2.74934944,-1.33065056,0.080186206,0.050886566,0.039448743,0.080186206,0.050886566,0.039448743
N-term,MD,Glu,4.08,3.001837967,-1.078162033,0.049487593,0.030842482,0.02793263,0.049487593,0.030842482,0.02793263
N-term,MD,Glu,4.08,3.24965078,-0.83034922,0.230420677,0.071471742,0.069675237,0.230420677,0.071471742,0.069675237
N-term,MD,Glu,4.08,3.502139307,-0.577860693,0.316045171,0.085371845,0.084872524,0.316045171,0.085371845,0.084872524
N-term,MD,Glu,4.08,3.745276407,-0.334723593,0.47596374,0.064934298,0.074475477,0.47596374,0.064934298,0.074475477
N-term,MD,Glu,4.08,4.00365287,-0.07634713,0.650413068,0.061670703,0.068620273,0.650413068,0.061670703,0.068620273
N-term,MD,Glu,4.08,4.245577748,0.165577748,0.738018488,0.054044832,0.075811086,0.738018488,0.054044832,0.075811086
N-term,MD,Glu,4.08,4.498066275,0.418066275,0.857414207,0.032871565,0.055290724,0.857414207,0.032871565,0.055290724
N-term,MD,Glu,4.08,4.745879088,0.665879088,0.907765223,0.03302119,0.057660802,0.907765223,0.03302119,0.057660802
N-term,MD,Glu,4.08,4.998367615,0.918367615,0.911588307,0.029893351,0.050781261,0.911588307,0.029893351,0.050781261
N-term,MD,Glu,4.08,5.246180428,1.166180428,0.943928003,0.02701698,0.063038528,0.943928003,0.02701698,0.063038528
N-term,MD,Glu,4.08,5.493993242,1.413993242,0.987524775,,,0.987524775,,
N-term,MD,Glu,4.08,5.755833196,1.675833196,0.986097176,,0.025103759,0.986097176,,0.025103759
N-term,MD,Glu,4.08,5.998970296,1.918970296,0.998172828,,,0.998172828,,
N-term,NMR,Glu,4.08,1.55236679378622,-2.52763320621378,0.00180186424716,,,0.00180186424716,,
N-term,NMR,Glu,4.08,2.10955598128238,-1.97044401871762,0.01634197973133,,,0.01634197973133,,
N-term,NMR,Glu,4.08,2.60829875050971,-1.47170124949029,0.049627515080433,,,0.049627515080433,,
N-term,NMR,Glu,4.08,3.0875593803141,-0.9924406196859,0.125434320445133,,,0.125434320445133,,
N-term,NMR,Glu,4.08,3.29796648608188,-0.78203351391812,0.179902453100705,,,0.179902453100705,,
N-term,NMR,Glu,4.08,3.65643785146403,-0.42356214853597,0.301954509417198,,,0.301954509417198,,
N-term,NMR,Glu,4.08,3.97984136588487,-0.10015863411513,0.440256962028829,,,0.440256962028829,,
N-term,NMR,Glu,4.08,4.48248056299679,0.40248056299679,0.715570698011902,,,0.715570698011902,,
N-term,NMR,Glu,4.08,4.88381263510941,0.80381263510941,0.860774302868421,,,0.860774302868421,,
N-term,NMR,Glu,4.08,5.62491321875815,1.54491321875815,0.965047297092816,,,0.965047297092816,,
N-term,NMR,Glu,4.08,6.41900522163729,2.33900522163729,0.986282938207461,,,0.986282938207461,,
C-term,MD,Glu,4.08,2.000456001,-2.079543999,0.020689171,0.039399762,,0.020689171,0.039399762,
C-term,MD,Glu,4.08,2.49919877,-1.58080123,0.023330447,,0.011882468,0.023330447,,0.011882468
C-term,MD,Glu,4.08,2.748570154,-1.331429846,0.061549275,0.018761791,0.031269653,0.061549275,0.018761791,0.031269653
C-term,MD,Glu,4.08,2.997941539,-1.082058461,0.06224452,0.048156356,0.04127485,0.06224452,0.048156356,0.04127485
C-term,MD,Glu,4.08,3.247312924,-0.832687076,0.109844243,0.061913912,0.048779566,0.109844243,0.061913912,0.048779566
C-term,MD,Glu,4.08,3.500580736,-0.579419264,0.20497493,0.066291663,0.063790091,0.20497493,0.066291663,0.063790091
C-term,MD,Glu,4.08,3.749952121,-0.330047879,0.270711052,0.031269652,0.040025155,0.270711052,0.031269652,0.040025155
C-term,MD,Glu,4.08,4.003219933,-0.076780067000001,0.461526874,0.07004293,0.070670506,0.461526874,0.07004293,0.070670506
C-term,MD,Glu,4.08,4.244798462,0.164798462,0.64983785,0.072545594,0.087553935,0.64983785,0.072545594,0.087553935
C-term,MD,Glu,4.08,4.498066275,0.418066275,0.753098647,0.048780657,0.070669415,0.753098647,0.048780657,0.070669415
C-term,MD,Glu,4.08,4.739644803,0.659644803,0.817581799,0.043154304,0.065038694,0.817581799,0.043154304,0.065038694
C-term,MD,Glu,4.08,4.996809044,0.916809044,0.852675845,0.028141596,0.039399762,0.852675845,0.028141596,0.039399762
C-term,MD,Glu,4.08,5.246180428,1.166180428,0.940300723,0.010631682,0.028766988,0.940300723,0.010631682,0.028766988
C-term,MD,Glu,4.08,5.499448241,1.419448241,0.948501776,0.012507861,0.026892992,0.948501776,0.012507861,0.026892992
C-term,MD,Glu,4.08,5.748819625,1.668819625,0.994225321,,,0.994225321,,
C-term,MD,Glu,4.08,5.994294582,1.914294582,0.98991633,,0.028140504,0.98991633,,0.028140504
C-term,MD,Glu,4.08,6.496284375,2.416284375,1.002460572,,,1.002460572,,
C-term,NMR,Glu,4.08,0.702945514945924,-3.37705448505408,0.007192468539032,,,0.007192468539032,,
C-term,NMR,Glu,4.08,1.11986329859689,-2.96013670140311,0.008560038325976,,,0.008560038325976,,
C-term,NMR,Glu,4.08,1.55236679378622,-2.52763320621378,0.011808152999515,,,0.011808152999515,,
C-term,NMR,Glu,4.08,2.11345240916697,-1.96654759083303,0.025723966873046,,,0.025723966873046,,
C-term,NMR,Glu,4.08,2.6121951783943,-1.4678048216057,0.062136467457259,,,0.062136467457259,,
C-term,NMR,Glu,4.08,3.09145580819869,-0.98854419180131,0.145447989386226,,,0.145447989386226,,
C-term,NMR,Glu,4.08,3.30186291396647,-0.77813708603353,0.206170052512019,,,0.206170052512019,,
C-term,NMR,Glu,4.08,3.66033427934861,-0.41966572065139,0.340729969768956,,,0.340729969768956,,
C-term,NMR,Glu,4.08,3.98373779376946,-0.09626220623054,0.481533994568675,,,0.481533994568675,,
C-term,NMR,Glu,4.08,4.49416984665056,0.41416984665056,0.701189932239538,,,0.701189932239538,,
C-term,NMR,Glu,4.08,4.88381263510941,0.80381263510941,0.814495217388779,,,0.814495217388779,,
C-term,NMR,Glu,4.08,5.62803036106582,1.54803036106582,0.957293296458846,,,0.957293296458846,,
C-term,NMR,Glu,4.08,6.41900522163729,2.33900522163729,0.990035296489595,,,0.990035296489595,,
