Term,Method,Aminoacid,pKa,pH,pH-pKa,Degree_dissociation,Degree_dissociationErrUp,Degree_dissociationErrDown,Degree_ionization,Degree_ionizationErrUp,Degree_ionizationErrDown
N-term,MD,His,6.54,3.248359468,-3.291640532,0.002538964,0.006913022,,0.997461036,,0.006913022
N-term,MD,His,6.54,3.498561228,-3.041438772,0.000653595,0.008169934,,0.999346405,,0.008169934
N-term,MD,His,6.54,3.748917781,-2.791082219,0.020764203,0.049019608,,0.979235797,,0.049019608
N-term,MD,His,6.54,3.99898244,-2.54101756,-0.000603318,,,1.000603318,,
N-term,MD,His,6.54,4.245292281,-2.294707719,2.51E-05,,,0.9999749,,
N-term,MD,His,6.54,4.495737287,-2.044262713,0.032704877,0.02702363,0.023252891,0.967295123,0.023252891,0.02702363
N-term,MD,His,6.54,4.746204406,-1.793795594,0.068526898,0.071015586,0.049019608,0.931473102,0.049019608,0.071015586
N-term,MD,His,6.54,5.000134448,-1.539865552,0.040874811,0.018853696,0.021367521,0.959125189,0.021367521,0.018853696
N-term,MD,His,6.54,5.247005964,-1.292994036,0.121317245,0.056561086,0.051533434,0.878682755,0.051533434,0.056561086
N-term,MD,His,6.54,5.497924192,-1.042075808,0.22124183,0.057189543,0.062845651,0.77875817,0.062845651,0.057189543
N-term,MD,His,6.54,5.752278807,-0.787721193,0.253921569,0.044620412,0.05593263,0.746078431,0.05593263,0.044620412
N-term,MD,His,6.54,5.999336074,-0.540663926,0.360759175,0.058446456,0.062217194,0.639240825,0.062217194,0.058446456
N-term,MD,His,6.54,6.250413516,-0.289586484,0.483308195,0.057189543,0.064102564,0.516691805,0.064102564,0.057189543
N-term,MD,His,6.54,6.50194649,-0.03805351,0.670588235,0.040221217,0.050276521,0.329411765,0.050276521,0.040221217
N-term,MD,His,6.54,6.752524175,0.212524175,0.722121669,0.03959276,0.050904977,0.277878331,0.050904977,0.03959276
N-term,MD,His,6.54,6.999603555,0.459603555,0.832101559,0.027652086,0.040849674,0.167898441,0.040849674,0.027652086
N-term,MD,His,6.54,7.254466773,0.714466773,0.937053796,0.013197587,0.026395174,0.062946204,0.026395174,0.013197587
N-term,MD,His,6.54,7.504734874,0.964734874,0.944595274,0.015711413,0.024509804,0.055404726,0.024509804,0.015711413
N-term,MD,His,6.54,7.754980861,1.214980861,0.94899447,0.01068376,0.028909,0.05100553,0.028909,0.01068376
N-term,MD,His,6.54,8.00546567,1.46546567,0.987330317,,,0.012669683,,
N-term,MD,His,6.54,8.255760306,1.715760306,0.998642534,,,0.001357466,,
N-term,MD,His,6.54,8.501994962,1.961994962,0.98858723,,0.018853696,0.01141277,0.018853696,
N-term,MD,His,6.54,9.00244271,2.46244271,0.991101056,,0.021367522,0.008898944,0.021367522,
N-term,NMR,His,6.54,1.10587117251852,-5.43412882748148,-0.000603318250377,,,1.00060331825038,,
N-term,NMR,His,6.54,1.87996949442907,-4.66003050557093,-0.001231774761187,,,1.00123177476119,,
N-term,NMR,His,6.54,2.81829354199681,-3.72170645800319,0.001282051282051,,,0.998717948717949,,
N-term,NMR,His,6.54,3.54941711432583,-2.99058288567417,0.005052790346908,,,0.994947209653092,,
N-term,NMR,His,6.54,4.18677196784991,-2.35322803215009,0.017621920563097,,,0.982378079436903,,
N-term,NMR,His,6.54,4.97692003414982,-1.56307996585018,0.075439919557567,,,0.924560080442433,,
N-term,NMR,His,6.54,5.6349374409357,-0.9050625590643,0.246380090497737,,,0.753619909502263,,
N-term,NMR,His,6.54,6.12145388659442,-0.41854611340558,0.491478129713423,,,0.508521870286577,,
N-term,NMR,His,6.54,6.55310753832921,0.01310753832921,0.718350930115636,,,0.281649069884364,,
N-term,NMR,His,6.54,7.21126204681695,0.67126204681695,0.908773252890899,,,0.091226747109101,,
N-term,NMR,His,6.54,7.83335438507852,1.29335438507852,0.974761186525892,,,0.025238813474108,,
N-term,NMR,His,6.54,8.73272385877428,2.19272385877428,0.997385620915032,,,0.002614379084968,,
C-term,MD,Glu,4.08,1.997328551,-2.082671449,0.008823529,,,0.008823529,,
C-term,MD,Glu,4.08,2.498015121,-1.581984879,0.045274007,0.0144545,0.016339869,0.045274007,0.0144545,0.016339869
C-term,MD,Glu,4.08,2.748287644,-1.331712356,0.053443942,0.025766717,0.023881348,0.053443942,0.025766717,0.023881348
C-term,MD,Glu,4.08,3.002872236,-1.077127764,0.118803419,0.03959276,0.038964304,0.118803419,0.03959276,0.038964304
C-term,MD,Glu,4.08,3.245391879,-0.834608121,0.136400201,0.032051282,0.036450478,0.136400201,0.032051282,0.036450478
C-term,MD,Glu,4.08,3.500560259,-0.579439741,0.284715938,0.043991955,0.046505782,0.284715938,0.043991955,0.046505782
C-term,MD,Glu,4.08,3.750934503,-0.329065497,0.307340372,0.061588738,0.06850176,0.307340372,0.061588738,0.06850176
C-term,MD,Glu,4.08,4.007097976,-0.072902024,0.597058824,0.083584715,0.096782303,0.597058824,0.083584715,0.096782303
C-term,MD,Glu,4.08,4.254593084,0.174593084,0.766113625,0.035193565,0.045248869,0.766113625,0.035193565,0.045248869
C-term,MD,Glu,4.08,4.504936369,0.424936369,0.784338864,0.016968326,0.032679739,0.784338864,0.016968326,0.032679739
C-term,MD,Glu,4.08,4.759786319,0.679786319,0.887405732,0.022624434,0.037707391,0.887405732,0.022624434,0.037707391
C-term,MD,Glu,4.08,5.010430344,0.930430344,0.948366013,0.011940674,0.038335847,0.948366013,0.011940674,0.038335847
C-term,MD,Glu,4.08,5.260645372,1.180645372,0.948366013,0.011312217,0.018225239,0.948366013,0.011312217,0.018225239
C-term,MD,Glu,4.08,5.503271158,1.423271158,0.981045752,,0.011312218,0.981045752,,0.011312218
C-term,MD,Glu,4.08,5.757484249,1.677484249,0.993614882,,0.013197587,0.993614882,,0.013197587
C-term,MD,Glu,4.08,6.007712546,1.927712546,0.995500251,,0.015082956,0.995500251,,0.015082956
C-term,MD,Glu,4.08,6.254035655,2.174035655,0.998014077,,0.008169934,0.998014077,,0.008169934
C-term,MD,Glu,4.08,6.508169139,2.428169139,0.99927099,,0.008798391,0.99927099,,0.008798391
C-term,MD,Glu,4.08,6.750573793,2.670573793,1.000527903,,0.01068376,1.000527903,,0.01068376
C-term,MD,Glu,4.08,7.004645359,2.924645359,0.992986425,,0.022624434,0.992986425,,0.022624434
C-term,MD,Glu,4.08,7.250995005,3.170995005,0.99927099,,0.008798391,0.99927099,,0.008798391
C-term,MD,Glu,4.08,7.501214456,3.421214456,0.999899447,,0.009426848,0.999899447,,0.009426848
C-term,MD,Glu,4.08,8.005514319,3.925514319,0.994243338,,0.023881347,0.994243338,,0.023881347
C-term,NMR,Glu,4.08,1.10983827660153,-2.97016172339847,0.007566616390146,,,0.007566616390146,,
C-term,NMR,Glu,4.08,1.88010659613093,-2.19989340386907,0.018250377073906,,,0.018250377073906,,
C-term,NMR,Glu,4.08,2.8190453900393,-1.2609546099607,0.108119658119657,,,0.108119658119657,,
C-term,NMR,Glu,4.08,3.5519645523992,-0.5280354476008,0.367043740573152,,,0.367043740573152,,
C-term,NMR,Glu,4.08,4.18759900069665,0.10759900069665,0.69069884364002,,,0.69069884364002,,
C-term,NMR,Glu,4.08,4.98280656205895,0.90280656205895,0.911915535444947,,,0.911915535444947,,
C-term,NMR,Glu,4.08,5.64398173062328,1.56398173062328,0.976018099547511,,,0.976018099547511,,
C-term,NMR,Glu,4.08,6.12493892340313,2.04493892340313,0.986701860231272,,,0.986701860231272,,
C-term,NMR,Glu,4.08,6.55118369186755,2.47118369186755,1.00052790346908,,,1.00052790346908,,
