#,cpH,N,n,cM,pKa,pKb,pH,cS,Blocks,B_size,N_A,N_AErr,N_ANef,N_ATau,N_BH,N_BHErr,N_BHNef,N_BHTau,alpha_acid,alpha_acidErr,alpha_acidNef,alpha_acidTau,alpha_base,alpha_baseErr,alpha_baseNef,alpha_baseTau
0,ideal,1,20,0.0100,4.0,0.0,5.5,0.0,16,1000.0625,19.37672645459659,0.06286592664476784,2505.258209402001,0.0,0.0,0.0,,,0.9688363227298293,0.0031432963322383894,2505.2582094020054,0.0,0.0,0.0,,
1,ideal,1,20,0.0100,4.0,0.0,6.5,0.0,16,1000.0625,19.939316292731704,0.016209441497166476,3684.456256759574,0.0,0.0,0.0,,,0.9969658146365853,0.0008104720748582689,3684.456256760081,0.0,0.0,0.0,,
2,ideal,1,20,0.0100,4.0,0.0,10.0,0.0,16,1000.0625,20.0,0.0,,,0.0,0.0,,,1.0,0.0,,,0.0,0.0,,
3,ideal,1,20,0.0100,4.0,0.0,11.5,0.0,16,1000.0625,20.0,0.0,,,0.0,0.0,,,1.0,0.0,,,0.0,0.0,,
4,ideal,1,20,0.0100,4.0,0.0,3.0,0.0,16,1000.0625,1.783701018686332,0.08988299121466287,3253.440405239036,0.0,0.0,0.0,,,0.08918505093431661,0.00449414956073315,3253.440405239027,0.0,0.0,0.0,,
5,ideal,1,20,0.0100,4.0,0.0,9.5,0.0,16,1000.0625,20.0,0.0,,,0.0,0.0,,,1.0,0.0,,,0.0,0.0,,
6,ideal,1,20,0.0100,4.0,0.0,6.0,0.0,16,1000.0625,19.80563714767827,0.020612326245268164,7106.987528627515,0.0,0.0,0.0,,,0.9902818573839135,0.00103061631226338,7106.987528627908,0.0,0.0,0.0,,
7,ideal,1,20,0.0100,4.0,0.0,11.0,0.0,16,1000.0625,20.0,0.0,,,0.0,0.0,,,1.0,0.0,,,0.0,0.0,,
8,ideal,1,20,0.0100,4.0,0.0,9.0,0.0,16,1000.0625,20.0,0.0,,,0.0,0.0,,,1.0,0.0,,,0.0,0.0,,
9,ideal,1,20,0.0100,4.0,0.0,3.5,0.0,16,1000.0625,4.766139616273983,0.1301073120067129,3448.7946443190344,0.0,0.0,0.0,,,0.23830698081369914,0.0065053656003356535,3448.794644319026,0.0,0.0,0.0,,
10,ideal,1,20,0.0100,4.0,0.0,4.5,0.0,16,1000.0625,15.183426035872758,0.13026453933220192,3498.566129054306,0.0,0.0,0.0,,,0.7591713017936379,0.006513226966610115,3498.566129054285,0.0,0.0,0.0,,
11,ideal,1,20,0.0100,4.0,0.0,5.0,0.0,16,1000.0625,18.19667520779951,0.09902657865293796,2671.768274391984,0.0,0.0,0.0,,,0.9098337603899757,0.004951328932646886,2671.768274391997,0.0,0.0,0.0,,
12,ideal,1,20,0.0100,4.0,0.0,8.0,0.0,16,1000.0625,19.99881257421411,0.0016418993066972666,7039.544572514638,0.0,0.0,0.0,,,0.9999406287107055,8.209496533487258e-05,7039.544572513067,0.0,0.0,0.0,,
13,ideal,1,20,0.0100,4.0,0.0,12.0,0.0,16,1000.0625,20.0,0.0,,,0.0,0.0,,,1.0,0.0,,,0.0,0.0,,
14,ideal,1,20,0.0100,4.0,0.0,7.5,0.0,16,1000.0625,19.992625460908695,0.006130671458587038,3116.3866266526625,0.0,0.0,0.0,,,0.9996312730454345,0.00030653357292935966,3116.38662665251,0.0,0.0,0.0,,
15,ideal,1,20,0.0100,4.0,0.0,8.5,0.0,16,1000.0625,19.999500031248047,0.0013165611772084865,4613.07706730064,0.0,0.0,0.0,,,0.9999750015624024,6.582805886043108e-05,4613.077067299705,0.0,0.0,0.0,,
16,ideal,1,20,0.0100,4.0,0.0,7.0,0.0,16,1000.0625,19.976313980376226,0.013734443726338247,2046.4023759923612,0.0,0.0,0.0,,,0.9988156990188113,0.0006867221863168928,2046.4023759924817,0.0,0.0,0.0,,
17,ideal,1,20,0.0100,4.0,0.0,2.0,0.0,16,1000.0625,0.19817511405537153,0.03193528907771189,3136.2915316638473,0.0,0.0,0.0,,,0.009908755702768578,0.0015967644538855941,3136.29153166385,0.0,0.0,0.0,,
18,ideal,1,20,0.0100,4.0,0.0,2.5,0.0,16,1000.0625,0.6048996937691394,0.049042690534410564,3831.794214511542,0.0,0.0,0.0,,,0.03024498468845697,0.002452134526720529,3831.7942145115403,0.0,0.0,0.0,,
19,ideal,1,20,0.0100,4.0,0.0,10.5,0.0,16,1000.0625,20.0,0.0,,,0.0,0.0,,,1.0,0.0,,,0.0,0.0,,
20,ideal,1,20,0.0100,4.0,0.0,4.0,0.0,16,1000.0625,10.061871133054185,0.1296241676997574,4947.544673535588,0.0,0.0,0.0,,,0.5030935566527092,0.0064812083849878355,4947.544673535642,0.0,0.0,0.0,,
