#,cpH,N,n,cM,pKa,pKb,pH,cS,Blocks,B_size,N_A,N_AErr,N_ANef,N_ATau,N_BH,N_BHErr,N_BHNef,N_BHTau,alpha_acid,alpha_acidErr,alpha_acidNef,alpha_acidTau,alpha_base,alpha_baseErr,alpha_baseNef,alpha_baseTau
0,real,4,5,0.0100,4.00,0.00,5.50,0.150,16,200.0625,19.248359887535145,0.1491256910367396,532.760056194179,0.0,0.0,0.0,,,0.9624179943767572,0.007456284551836964,532.7600561941811,0.0,0.0,0.0,,
1,real,4,5,0.0100,4.00,0.00,6.50,0.150,16,200.0625,19.925648234926584,0.04622583377801423,548.2526246348784,0.0,0.0,0.0,,,0.9962824117463294,0.0023112916889007134,548.2526246348784,0.0,0.0,0.0,,
2,real,4,5,0.0100,4.00,0.00,10.00,0.150,16,200.0625,20.0,0.0,,,0.0,0.0,,,1.0,0.0,,,0.0,0.0,,
3,real,4,5,0.0100,4.00,0.00,11.50,0.150,16,200.0625,20.0,0.0,,,0.0,0.0,,,1.0,0.0,,,0.0,0.0,,
4,real,4,5,0.0100,4.00,0.00,3.00,0.150,16,200.0625,2.7916276163698845,0.2524829789826163,545.7467929989003,0.0,0.0,0.0,,,0.13958138081849425,0.012624148949130814,545.7467929989004,0.0,0.0,0.0,,
5,real,4,5,0.0100,4.00,0.00,9.50,0.150,16,200.0625,20.0,0.0,,,0.0,0.0,,,1.0,0.0,,,0.0,0.0,,
6,real,4,5,0.0100,4.00,0.00,6.00,0.150,16,200.0625,19.77507029053421,0.08221073244207593,541.5693476960172,0.0,0.0,0.0,,,0.9887535145267105,0.004110536622103781,541.5693476960216,0.0,0.0,0.0,,
7,real,4,5,0.0100,4.00,0.00,11.00,0.150,16,200.0625,20.0,0.0,,,0.0,0.0,,,1.0,0.0,,,0.0,0.0,,
8,real,4,5,0.0100,4.00,0.00,9.00,0.150,16,200.0625,20.0,0.0,,,0.0,0.0,,,1.0,0.0,,,0.0,0.0,,
9,real,4,5,0.0100,4.00,0.00,3.50,0.150,16,200.0625,6.088097469540768,0.39672027733318044,372.6215672129373,0.0,0.0,0.0,,,0.30440487347703843,0.01983601386665902,372.62156721293735,0.0,0.0,0.0,,
10,real,4,5,0.0100,4.00,0.00,4.50,0.150,16,200.0625,14.940955951265229,0.3019977006497612,575.3037405933859,0.0,0.0,0.0,,,0.7470477975632616,0.015099885032488047,575.3037405933869,0.0,0.0,0.0,,
11,real,4,5,0.0100,4.00,0.00,5.00,0.150,16,200.0625,17.892845985629492,0.2500423125129631,410.1208561451868,0.0,0.0,0.0,,,0.8946422992814745,0.012502115625648205,410.12085614518327,0.0,0.0,0.0,,
12,real,4,5,0.0100,4.00,0.00,8.00,0.150,16,200.0625,19.997188378631677,0.00604669331122386,1227.3087737005478,0.0,0.0,0.0,,,0.9998594189315839,0.0003023346655611826,1227.3087737006342,0.0,0.0,0.0,,
13,real,4,5,0.0100,4.00,0.00,12.00,0.150,16,200.0625,20.0,0.0,,,0.0,0.0,,,1.0,0.0,,,0.0,0.0,,
14,real,4,5,0.0100,4.00,0.00,7.50,0.150,16,200.0625,19.99187753826929,0.009105858919764906,1555.1044821107332,0.0,0.0,0.0,,,0.9995938769134645,0.00045529294598823825,1555.1044821107841,0.0,0.0,0.0,,
15,real,4,5,0.0100,4.00,0.00,8.50,0.150,16,200.0625,19.99968759762574,0.0012499999999997513,3199.0003124036475,0.0,0.0,0.0,,,0.9999843798812871,6.250000000002087e-05,3199.0003124002465,0.0,0.0,0.0,,
16,real,4,5,0.0100,4.00,0.00,7.00,0.150,16,200.0625,19.97969384567323,0.018111813075705516,970.6214532533397,0.0,0.0,0.0,,,0.9989846922836614,0.0009055906537852578,970.6214532533802,0.0,0.0,0.0,,
17,real,4,5,0.0100,4.00,0.00,2.00,0.150,16,200.0625,0.41299593876913465,0.09685288055771712,708.9292349527215,0.0,0.0,0.0,,,0.02064979693845673,0.004842644027885854,708.929234952722,0.0,0.0,0.0,,
18,real,4,5,0.0100,4.00,0.00,2.50,0.150,16,200.0625,1.0193689472039988,0.18974956327098141,427.5528333916928,0.0,0.0,0.0,,,0.05096844736019994,0.009487478163549072,427.5528333916926,0.0,0.0,0.0,,
19,real,4,5,0.0100,4.00,0.00,10.50,0.150,16,200.0625,20.0,0.0,,,0.0,0.0,,,1.0,0.0,,,0.0,0.0,,
20,real,4,5,0.0100,4.00,0.00,4.00,0.150,16,200.0625,10.587628865979381,0.31771374654086587,655.4093865780181,0.0,0.0,0.0,,,0.5293814432989691,0.015885687327043287,655.4093865780186,0.0,0.0,0.0,,
