#,cpH,N,n,cM,pKa,pKb,pH,cS,Blocks,B_size,N_A,N_AErr,N_ANef,N_ATau,N_BH,N_BHErr,N_BHNef,N_BHTau,alpha_acid,alpha_acidErr,alpha_acidNef,alpha_acidTau,alpha_base,alpha_baseErr,alpha_baseNef,alpha_baseTau
0,real,20,1,0.0100,0.00,6.30,5.50,0.150,16,200.0625,0.0,0.0,,,14.218369259606373,0.5153318397179658,229.81703774966593,0.0,0.0,0.0,,,0.7109184629803187,0.02576659198589829,229.817037749666,0.0
1,real,20,1,0.0100,0.00,6.30,6.50,0.150,16,200.0625,0.0,0.0,,,5.51109028428616,0.36562158164337666,394.0725613202477,0.0,0.0,0.0,,,0.275554514214308,0.01828107908216883,394.0725613202478,0.0
2,real,20,1,0.0100,0.00,6.30,10.00,0.150,16,200.0625,0.0,0.0,,,0.003124023742580444,0.008539125638299666,683.5720980050877,0.0,0.0,0.0,,,0.00015620118712902218,0.0004269562819149833,683.572098005088,0.0
3,real,20,1,0.0100,0.00,6.30,11.50,0.150,16,200.0625,0.0,0.0,,,0.0,0.0,,,0.0,0.0,,,0.0,0.0,,
4,real,20,1,0.0100,0.00,6.30,3.00,0.150,16,200.0625,0.0,0.0,,,19.96626054358013,0.023419885431781785,951.3021390206484,0.0,0.0,0.0,,,0.9983130271790065,0.0011709942715890692,951.3021390206826,0.0
5,real,20,1,0.0100,0.00,6.30,9.50,0.150,16,200.0625,0.0,0.0,,,0.015620118712902219,0.018306111952256388,734.3625305670397,0.0,0.0,0.0,,,0.000781005935645111,0.0009153055976128195,734.3625305670396,0.0
6,real,20,1,0.0100,0.00,6.30,6.00,0.150,16,200.0625,0.0,0.0,,,9.884098719150266,0.5046654867665593,244.4174267083129,0.0,0.0,0.0,,,0.4942049359575133,0.02523327433832796,244.41742670831295,0.0
7,real,20,1,0.0100,0.00,6.30,11.00,0.150,16,200.0625,0.0,0.0,,,0.00031240237425804435,0.00125,3199.0003124023747,0.0,0.0,0.0,,,1.562011871290222e-05,6.25e-05,3199.000312402377,0.0
8,real,20,1,0.0100,0.00,6.30,9.00,0.150,16,200.0625,0.0,0.0,,,0.03811308965948141,0.02839585267185438,740.0879584839324,0.0,0.0,0.0,,,0.0019056544829740706,0.0014197926335927189,740.0879584839321,0.0
9,real,20,1,0.0100,0.00,6.30,3.50,0.150,16,200.0625,0.0,0.0,,,19.887222742892845,0.031823326305962886,1976.2905380676223,0.0,0.0,0.0,,,0.9943611371446422,0.001591166315298181,1976.290538067532,0.0
10,real,20,1,0.0100,0.00,6.30,4.50,0.150,16,200.0625,0.0,0.0,,,18.982817869415808,0.1698109632022693,533.3749897577782,0.0,0.0,0.0,,,0.9491408934707903,0.008490548160113503,533.3749897577733,0.0
11,real,20,1,0.0100,0.00,6.30,5.00,0.150,16,200.0625,0.0,0.0,,,17.323648859731335,0.2672350239625951,465.0802276417482,0.0,0.0,0.0,,,0.8661824429865665,0.013361751198129738,465.0802276417491,0.0
12,real,20,1,0.0100,0.00,6.30,8.00,0.150,16,200.0625,0.0,0.0,,,0.41237113402061853,0.11061596029764414,476.33234649029026,0.0,0.0,0.0,,,0.020618556701030927,0.005530798014882207,476.3323464902905,0.0
13,real,20,1,0.0100,0.00,6.30,12.00,0.150,16,200.0625,0.0,0.0,,,0.0,0.0,,,0.0,0.0,,,0.0,0.0,,
14,real,20,1,0.0100,0.00,6.30,7.50,0.150,16,200.0625,0.0,0.0,,,1.0940331146516713,0.10389265665051041,1459.509098829092,0.0,0.0,0.0,,,0.05470165573258357,0.005194632832525519,1459.5090988290929,0.0
15,real,20,1,0.0100,0.00,6.30,8.50,0.150,16,200.0625,0.0,0.0,,,0.1134020618556701,0.07196221471430653,341.6345739598518,0.0,0.0,0.0,,,0.005670103092783506,0.003598110735715327,341.6345739598518,0.0
16,real,20,1,0.0100,0.00,6.30,7.00,0.150,16,200.0625,0.0,0.0,,,2.7294595438925335,0.3615033037936806,236.51257059330476,0.0,0.0,0.0,,,0.1364729771946267,0.018075165189684033,236.51257059330476,0.0
17,real,20,1,0.0100,0.00,6.30,2.00,0.150,16,200.0625,0.0,0.0,,,19.99687597625742,0.0077190241179392605,836.5392807755322,0.0,0.0,0.0,,,0.999843798812871,0.0003859512058969606,836.5392807755442,0.0
18,real,20,1,0.0100,0.00,6.30,2.50,0.150,16,200.0625,0.0,0.0,,,19.98875351452671,0.015329985211118462,884.9708835895265,0.0,0.0,0.0,,,0.9994376757263355,0.0007664992605559184,884.9708835895383,0.0
19,real,20,1,0.0100,0.00,6.30,10.50,0.150,16,200.0625,0.0,0.0,,,0.0009372071227741331,0.002719528145346787,2026.2681996383174,0.0,0.0,0.0,,,4.686035613870666e-05,0.00013597640726733935,2026.2681996383178,0.0
20,real,20,1,0.0100,0.00,6.30,4.00,0.150,16,200.0625,0.0,0.0,,,19.666979069040924,0.10725015909118041,432.5109016810377,0.0,0.0,0.0,,,0.9833489534520462,0.005362507954559028,432.51090168103696,0.0
