#,cpH,N,n,cM,pKa,pKb,pH,cS,Blocks,B_size,N_A,N_AErr,N_ANef,N_ATau,N_BH,N_BHErr,N_BHNef,N_BHTau,alpha_acid,alpha_acidErr,alpha_acidNef,alpha_acidTau,alpha_base,alpha_baseErr,alpha_baseNef,alpha_baseTau
0,real,1,20,0.0100,4.00,0.00,5.50,0.010,16,1000.0625,19.530029373164176,0.047550282742118005,3250.652522440419,0.0,0.0,0.0,,,0.9765014686582089,0.0023775141371059267,3250.652522440348,0.0,0.0,0.0,,
1,real,1,20,0.0100,4.00,0.00,6.50,0.010,16,1000.0625,19.952252984188487,0.01215314545822019,5088.196684941017,0.0,0.0,0.0,,,0.9976126492094244,0.0006076572729110588,5088.196684940199,0.0,0.0,0.0,,
2,real,1,20,0.0100,4.00,0.00,10.00,0.010,16,1000.0625,20.0,0.0,,,0.0,0.0,,,1.0,0.0,,,0.0,0.0,,
3,real,1,20,0.0100,4.00,0.00,11.50,0.010,16,1000.0625,20.0,0.0,,,0.0,0.0,,,1.0,0.0,,,0.0,0.0,,
4,real,1,20,0.0100,4.00,0.00,3.00,0.010,16,1000.0625,2.2564839697518906,0.08186632512103492,4786.1734106124495,0.0,0.0,0.0,,,0.11282419848759453,0.004093316256051749,4786.173410612445,0.0,0.0,0.0,,
5,real,1,20,0.0100,4.00,0.00,9.50,0.010,16,1000.0625,20.0,0.0,,,0.0,0.0,,,1.0,0.0,,,0.0,0.0,,
6,real,1,20,0.0100,4.00,0.00,6.00,0.010,16,1000.0625,19.84263483532279,0.029889523758979825,2748.82416847309,0.0,0.0,0.0,,,0.9921317417661395,0.0014944761879490073,2748.824168473034,0.0,0.0,0.0,,
7,real,1,20,0.0100,4.00,0.00,11.00,0.010,16,1000.0625,20.0,0.0,,,0.0,0.0,,,1.0,0.0,,,0.0,0.0,,
8,real,1,20,0.0100,4.00,0.00,9.00,0.010,16,1000.0625,20.0,0.0,,,0.0,0.0,,,1.0,0.0,,,0.0,0.0,,
9,real,1,20,0.0100,4.00,0.00,3.50,0.010,16,1000.0625,5.76670208111993,0.12196209568131028,4411.239623687249,0.0,0.0,0.0,,,0.2883351040559965,0.006098104784065517,4411.239623687245,0.0,0.0,0.0,,
10,real,1,20,0.0100,4.00,0.00,4.50,0.010,16,1000.0625,16.188175739016312,0.1314715169456867,2889.8523045889942,0.0,0.0,0.0,,,0.8094087869508155,0.006573575847284343,2889.8523045889865,0.0,0.0,0.0,,
11,real,1,20,0.0100,4.00,0.00,5.00,0.010,16,1000.0625,18.60252484219736,0.07412048548419392,3804.266918809766,0.0,0.0,0.0,,,0.9301262421098682,0.003706024274209712,3804.2669188097316,0.0,0.0,0.0,,
12,real,1,20,0.0100,4.00,0.00,8.00,0.010,16,1000.0625,19.998437597650145,0.001896268265128296,6941.628720628009,0.0,0.0,0.0,,,0.9999218798825074,9.481341325642252e-05,6941.628720626894,0.0,0.0,0.0,,
13,real,1,20,0.0100,4.00,0.00,12.00,0.010,16,1000.0625,20.0,0.0,,,0.0,0.0,,,1.0,0.0,,,0.0,0.0,,
14,real,1,20,0.0100,4.00,0.00,7.50,0.010,16,1000.0625,19.990563089806887,0.011803777643901543,1073.5370786985486,0.0,0.0,0.0,,,0.9995281544903444,0.0005901888821950879,1073.5370786985113,0.0,0.0,0.0,,
15,real,1,20,0.0100,4.00,0.00,8.50,0.010,16,1000.0625,20.0,0.0,,,0.0,0.0,,,1.0,0.0,,,0.0,0.0,,
16,real,1,20,0.0100,4.00,0.00,7.00,0.010,16,1000.0625,19.984313480407476,0.010313314522467084,2341.5969198727553,0.0,0.0,0.0,,,0.9992156740203738,0.0005156657261233733,2341.5969198725857,0.0,0.0,0.0,,
17,real,1,20,0.0100,4.00,0.00,2.00,0.010,16,1000.0625,0.24598462596087745,0.04094422519253709,2268.9915313314605,0.0,0.0,0.0,,,0.012299231298043873,0.002047211259626854,2268.991531331461,0.0,0.0,0.0,,
18,real,1,20,0.0100,4.00,0.00,2.50,0.010,16,1000.0625,0.7696393975376539,0.057633914082569425,3499.7147925889276,0.0,0.0,0.0,,,0.038481969876882696,0.0028816957041284726,3499.714792588925,0.0,0.0,0.0,,
19,real,1,20,0.0100,4.00,0.00,10.50,0.010,16,1000.0625,20.0,0.0,,,0.0,0.0,,,1.0,0.0,,,0.0,0.0,,
20,real,1,20,0.0100,4.00,0.00,4.00,0.010,16,1000.0625,11.329916880194988,0.11947988284511137,5584.651356465556,0.0,0.0,0.0,,,0.5664958440097494,0.0059739941422555735,5584.651356465545,0.0,0.0,0.0,,
